\relax 
\providecommand\babel@aux[2]{}
\@nameuse{bbl@beforestart}
\catcode `"\active 
\babel@aux{russian}{}
\Newlabel{FEFU}{a}
\Newlabel{IPM}{b}
\citation{belokon2006}
\citation{Hasenbusch2008}
\citation{Mirebeau2022}
\citation{newman2023proof}
\citation{edwards1975theory}
\citation{Ground2010pmJ,Correlation2005SG}
\citation{Feigelman1985Hierarchical,Murani1977Spin,Deryabin1983Features}
\citation{ziman1979models}
\citation{baxter2016exactly}
\citation{ziman1979models}
\citation{binder1986spin,fischer1993spin,young1998spin,bezzub1983}
\citation{kor1989}
\citation{sherrington1975solvable}
\citation{belokon2006,belokon2001funk}
\@writefile{toc}{\contentsline {section}{\numberline {1}Введение}{2}{}\protected@file@percent }
\citation{makarov2019}
\@writefile{toc}{\contentsline {section}{\numberline {2}Методы расчёта критических температур для систем конечного числа спинов Изинга}{3}{}\protected@file@percent }
\citation{Shevchenko2017,makarov2019,Shevchenko2022,makarova2023}
\newlabel{eq:unification_energy}{{1}{4}{}{}{}}
\@writefile{toc}{\contentsline {section}{\numberline {3}Алгоритм и особенности реализации}{4}{}\protected@file@percent }
\citation{katz2007mathematics}
\@writefile{loa}{\contentsline {algorithm}{\numberline {1}{\ignorespaces Calculation density of states by exhaustive search.}}{5}{}\protected@file@percent }
\newlabel{algo:dos_exhaustive}{{1}{5}{}{}{}}
\citation{makarov2019}
\@writefile{toc}{\contentsline {section}{\numberline {4}Модель Изинга на простой квадратной решетке}{6}{}\protected@file@percent }
\newlabel{eq:internal_energy}{{2}{6}{}{}{}}
\newlabel{eq:spinex}{{3}{6}{}{}{}}
\newlabel{eq:partfunk}{{4}{6}{}{}{}}
\@writefile{toc}{\contentsline {section}{\numberline {5}Теоретическая магнитная фазовая диаграмма в отсутствии поля}{6}{}\protected@file@percent }
\newlabel{eq:frustration_parameter}{{5}{6}{}{}{}}
\@writefile{lof}{\contentsline {figure}{\numberline {1}{\ignorespaces Зависимость параметра фрустрации от концентрации $P_{+}$ обменных констант для образцов $N=8\times 8$ без внешнего поля для температур, указанных на вставке}}{7}{}\protected@file@percent }
\newlabel{fig:fp0}{{1}{7}{}{}{}}
\newlabel{eq:Emax}{{6}{7}{}{}{}}
\newlabel{eq:ct}{{7}{7}{}{}{}}
\newlabel{eq:ct}{{8}{7}{}{}{}}
\newlabel{eq:ct}{{9}{7}{}{}{}}
\citation{Metropolis53}
\citation{Zaiman1953}
\citation{Hasenbusch2008,nishimori1980exact}
\newlabel{eq:P_M}{{10}{8}{}{}{}}
\newlabel{eq:M/N}{{11}{8}{}{}{}}
\@writefile{lof}{\contentsline {figure}{\numberline {2}{\ignorespaces Теоретическая магнитная фазовая диаграмма в отсутствии внешнего магнитного поля. Черные крестики --- точный расчет температуры максимума теплоемкости, красные пустые кружочки --- температура максимума теплоемкости, рассчитанная методом Метрополиса, синие заполненные кружочки --- рассчитанные значения модуля намагниченности, звездочки --- результаты получены по перегибу параметра порядка.}}{8}{}\protected@file@percent }
\newlabel{fig:Diag}{{2}{8}{}{}{}}
\@writefile{lof}{\contentsline {figure}{\numberline {3}{\ignorespaces Расходимость теплоемкости в зависимости от количества $N$ взаимодействующих спинов. На вкладке показаны значения $P_+$.}}{9}{}\protected@file@percent }
\newlabel{fig:Cmax(N)_scaling}{{3}{9}{}{}{}}
\citation{belokon2006}
\citation{newman2000efficient,jacobsen2014high,jacobsen2015critical}
\citation{nishimori1980exact}
\@writefile{toc}{\contentsline {section}{\numberline {6}Перколяционные пороги и основное состояние}{10}{}\protected@file@percent }
\@writefile{lof}{\contentsline {figure}{\numberline {4}{\ignorespaces Вероятность реализации перколяционного кластера спинов в основном состоянии, т.е. вероятность ферромагнетизма (антиферромагнетизма)}}{11}{}\protected@file@percent }
\newlabel{fig:Percolation}{{4}{11}{}{}{}}
\@writefile{toc}{\contentsline {section}{\numberline {7}Фазовые переходы и кроссоверы в отличном от нуля внешнем магнитном поле.}{12}{}\protected@file@percent }
\@writefile{lof}{\contentsline {figure}{\numberline {5}{\ignorespaces Фазовая диаграмма модели Изинга в поле $H = 1.0$.}}{12}{}\protected@file@percent }
\newlabel{fig:Diag1}{{5}{12}{}{}{}}
\citation{takzei1984}
\citation{takzei1984}
\@writefile{lof}{\contentsline {figure}{\numberline {6}{\ignorespaces Фазовая диаграмма образцов в поле $H = 4.0$. На вкладке представлено температурное поведение теплоемкости $P_{+}=0.25$.}}{13}{}\protected@file@percent }
\newlabel{fig:Diag4}{{6}{13}{}{}{}}
\@writefile{toc}{\contentsline {section}{\numberline {8}Линии нестабильности}{13}{}\protected@file@percent }
\@writefile{lof}{\contentsline {figure}{\numberline {7}{\ignorespaces Линия нестабильности системы конечного числа спинов Изинга в модели Эдвардса-Андерсона во внешнем магнитном поле. На вставках приводится температурное поведение теплоемкости во внешнем магнитном поле для систем $P_{+}=0.5$.}}{14}{}\protected@file@percent }
\newlabel{fig:Stable_line}{{7}{14}{}{}{}}
\@writefile{lof}{\contentsline {figure}{\numberline {8}{\ignorespaces Температурное поведение магнитной восприимчивости во внешнем магнитном поле для систем $P_{+}=0.5$ количеством частиц $N = 8 \times 8$. Значения модуля напряженности внешнего магнитного поля приведены на вкладке}}{14}{}\protected@file@percent }
\newlabel{fig:Chi(kT)_J0_8.eps}{{8}{14}{}{}{}}
\newlabel{eq:ct}{{12}{15}{}{}{}}
\newlabel{eq:ct}{{13}{15}{}{}{}}
\newlabel{eq:ct}{{14}{15}{}{}{}}
\@writefile{toc}{\contentsline {section}{\numberline {9}Заключение.}{15}{}\protected@file@percent }
\bibstyle{elsarticle-num-names}
\bibdata{bibliography.bib}
\bibcite{belokon2006}{{1}{2006}{{Belokon’ et~al.}}{{Belokon’, Nefedev, and Savunov}}}
\bibcite{Hasenbusch2008}{{2}{2008}{{Hasenbusch et~al.}}{{Hasenbusch, Toldin, Pelissetto, and Vicari}}}
\bibcite{Mirebeau2022}{{3}{2022}{{Mirebeau and Martin}}{{}}}
\bibcite{newman2023proof}{{4}{2023}{{Newman et~al.}}{{Newman, Read, and Stein}}}
\bibcite{edwards1975theory}{{5}{1975}{{Edwards and Anderson}}{{}}}
\bibcite{Ground2010pmJ}{{6}{2010}{{Rom{\'a} et~al.}}{{Rom{\'a}, Risau-Gusman, Ramirez-Pastor, Nieto, and Vogel}}}
\bibcite{Correlation2005SG}{{7}{2005}{{Katzgraber and Lee}}{{}}}
\bibcite{Feigelman1985Hierarchical}{{8}{1985}{{Feigel'man et~al.}}{{}}}
\bibcite{Murani1977Spin}{{9}{1977}{{Murani and Tholence}}{{}}}
\bibcite{Deryabin1983Features}{{10}{1983}{{Deryabin et~al.}}{{Deryabin, Rimlyand, and Larionov}}}
\bibcite{ziman1979models}{{11}{1979}{{Ziman}}{{}}}
\@writefile{toc}{\contentsline {section}{\numberline {10}Acknowledgements.}{17}{}\protected@file@percent }
\bibcite{baxter2016exactly}{{12}{2016}{{Baxter}}{{}}}
\bibcite{binder1986spin}{{13}{1986}{{Binder and Young}}{{}}}
\bibcite{fischer1993spin}{{14}{1993}{{Fischer and Hertz}}{{}}}
\bibcite{young1998spin}{{15}{1998}{{Young}}{{}}}
\bibcite{bezzub1983}{{16}{1983}{{Bezzub et~al.}}{{Bezzub, Moskalenko, and Palistrant}}}
\bibcite{kor1989}{{17}{1989}{{Korenblit and Shender}}{{}}}
\bibcite{sherrington1975solvable}{{18}{1975}{{Sherrington and Kirkpatrick}}{{}}}
\bibcite{belokon2001funk}{{19}{2001}{{Belokon and Nefedev}}{{}}}
\bibcite{makarov2019}{{20}{2019}{{Makarov et~al.}}{{Makarov, Makarova, Shevchenko, Andriushchenko, Kapitan, Soldatov, Perzhu, Rybin, Kapitan, Vasil’ev et~al.}}}
\bibcite{Shevchenko2017}{{21}{2017}{{Shevchenko et~al.}}{{Shevchenko, Makarov, and Nefedev}}}
\bibcite{Shevchenko2022}{{22}{2022}{{Shevchenko et~al.}}{{Shevchenko, Strongin, Kapitan, Soldatov, Makarov, Padalko, Volotovskii, and Nefedev}}}
\bibcite{makarova2023}{{23}{2023}{{Makarova et~al.}}{{Makarova, Makarov, Strongin, Titovets, Shevchenko, Kapitan, Rybin, Kapitan, Korol, Vasiliev et~al.}}}
\bibcite{katz2007mathematics}{{24}{2007}{{Katz}}{{}}}
\bibcite{Metropolis53}{{25}{1953}{{Metropolis et~al.}}{{Metropolis, Rosenbluth, Rosenbluth, Teller, and Teller}}}
\bibcite{Zaiman1953}{{26}{1972}{{Ziman}}{{}}}
\bibcite{nishimori1980exact}{{27}{1980}{{Nishimori}}{{}}}
\bibcite{newman2000efficient}{{28}{2000}{{Newman and Ziff}}{{}}}
\bibcite{jacobsen2014high}{{29}{2014}{{Jacobsen}}{{}}}
\bibcite{jacobsen2015critical}{{30}{2015}{{Jacobsen}}{{}}}
\bibcite{takzei1984}{{31}{1984}{{Takzei et~al.}}{{Takzei, Kostyshin, and Grebenyuk}}}
\gdef \@abspage@last{21}
