This is BibTeX, Version 0.99d
Capacity: max_strings=200000, hash_size=200000, hash_prime=170003
The top-level auxiliary file: main rus.aux
Reallocating 'name_of_file' (item size: 1) to 21 items.
The style file: elsarticle-num-names.bst
Reallocating 'name_of_file' (item size: 1) to 17 items.
Database file #1: bibliography.bib
Reallocating 'singl_function' (item size: 4) to 100 items.
You've used 31 entries,
            2918 wiz_defined-function locations,
            838 strings with 10648 characters,
and the built_in function-call counts, 19659 in all, are:
= -- 1355
> -- 818
< -- 20
+ -- 309
- -- 276
* -- 2320
:= -- 2826
add.period$ -- 31
call.type$ -- 31
change.case$ -- 238
chr.to.int$ -- 31
cite$ -- 31
duplicate$ -- 1476
empty$ -- 1478
format.name$ -- 374
if$ -- 3588
int.to.chr$ -- 1
int.to.str$ -- 1
missing$ -- 306
newline$ -- 158
num.names$ -- 124
pop$ -- 531
preamble$ -- 1
purify$ -- 244
quote$ -- 0
skip$ -- 344
stack$ -- 0
substring$ -- 864
swap$ -- 1086
text.length$ -- 1
text.prefix$ -- 0
top$ -- 0
type$ -- 261
warning$ -- 0
while$ -- 128
width$ -- 0
write$ -- 407
