%!PS-Adobe-3.0 EPSF-3.0
%%LanguageLevel: 3
%%Title: Frustration_parameter_h0.eps
%%Creator: Matplotlib v3.8.1, https://matplotlib.org/
%%CreationDate: Wed Nov 15 13:51:01 2023
%%Orientation: portrait
%%BoundingBox: 0 0 461 346
%%HiResBoundingBox: 0.000000 0.000000 460.800000 345.600000
%%EndComments
%%BeginProlog
/mpldict 10 dict def
mpldict begin
/_d { bind def } bind def
/m { moveto } _d
/l { lineto } _d
/r { rlineto } _d
/c { curveto } _d
/cl { closepath } _d
/ce { closepath eofill } _d
/sc { setcachedevice } _d
%!PS-Adobe-3.0 Resource-Font
%%Creator: Converted from TrueType to Type 3 by Matplotlib.
10 dict begin
/FontName /DejaVuSans def
/PaintType 0 def
/FontMatrix [0.00048828125 0 0 0.00048828125 0 0] def
/FontBBox [-2090 -948 3673 2524] def
/FontType 3 def
/Encoding [/plus /period /slash /zero /one /two /three /four /five /six /eight] def
/CharStrings 12 dict dup begin
/.notdef 0 def
/plus{1716 0 217 0 1499 1284 sc
942 1284 m
942 727 l
1499 727 l
1499 557 l
942 557 l
942 0 l
774 0 l
774 557 l
217 557 l
217 727 l
774 727 l
774 1284 l
942 1284 l

ce} _d
/period{651 0 219 0 430 254 sc
219 254 m
430 254 l
430 0 l
219 0 l
219 254 l

ce} _d
/slash{690 0 0 -190 690 1493 sc
520 1493 m
690 1493 l
170 -190 l
0 -190 l
520 1493 l

ce} _d
/zero{1303 0 135 -29 1167 1520 sc
651 1360 m
547 1360 469 1309 416 1206 c
364 1104 338 950 338 745 c
338 540 364 387 416 284 c
469 182 547 131 651 131 c
756 131 834 182 886 284 c
939 387 965 540 965 745 c
965 950 939 1104 886 1206 c
834 1309 756 1360 651 1360 c

651 1520 m
818 1520 946 1454 1034 1321 c
1123 1189 1167 997 1167 745 c
1167 494 1123 302 1034 169 c
946 37 818 -29 651 -29 c
484 -29 356 37 267 169 c
179 302 135 494 135 745 c
135 997 179 1189 267 1321 c
356 1454 484 1520 651 1520 c

ce} _d
/one{1303 0 225 0 1114 1493 sc
254 170 m
584 170 l
584 1309 l
225 1237 l
225 1421 l
582 1493 l
784 1493 l
784 170 l
1114 170 l
1114 0 l
254 0 l
254 170 l

ce} _d
/two{1303 0 150 0 1098 1520 sc
393 170 m
1098 170 l
1098 0 l
150 0 l
150 170 l
227 249 331 356 463 489 c
596 623 679 709 713 748 c
778 821 823 882 848 932 c
874 983 887 1032 887 1081 c
887 1160 859 1225 803 1275 c
748 1325 675 1350 586 1350 c
523 1350 456 1339 385 1317 c
315 1295 240 1262 160 1217 c
160 1421 l
241 1454 317 1478 388 1495 c
459 1512 523 1520 582 1520 c
737 1520 860 1481 952 1404 c
1044 1327 1090 1223 1090 1094 c
1090 1033 1078 974 1055 919 c
1032 864 991 800 930 725 c
913 706 860 650 771 557 c
682 465 556 336 393 170 c

ce} _d
/three{1303 0 156 -29 1139 1520 sc
831 805 m
928 784 1003 741 1057 676 c
1112 611 1139 530 1139 434 c
1139 287 1088 173 987 92 c
886 11 742 -29 555 -29 c
492 -29 428 -23 361 -10 c
295 2 227 20 156 45 c
156 240 l
212 207 273 183 340 166 c
407 149 476 141 549 141 c
676 141 772 166 838 216 c
905 266 938 339 938 434 c
938 522 907 591 845 640 c
784 690 698 715 588 715 c
414 715 l
414 881 l
596 881 l
695 881 771 901 824 940 c
877 980 903 1037 903 1112 c
903 1189 876 1247 821 1288 c
767 1329 689 1350 588 1350 c
533 1350 473 1344 410 1332 c
347 1320 277 1301 201 1276 c
201 1456 l
278 1477 349 1493 416 1504 c
483 1515 547 1520 606 1520 c
759 1520 881 1485 970 1415 c
1059 1346 1104 1252 1104 1133 c
1104 1050 1080 980 1033 923 c
986 866 918 827 831 805 c

ce} _d
/four{1303 0 100 0 1188 1493 sc
774 1317 m
264 520 l
774 520 l
774 1317 l

721 1493 m
975 1493 l
975 520 l
1188 520 l
1188 352 l
975 352 l
975 0 l
774 0 l
774 352 l
100 352 l
100 547 l
721 1493 l

ce} _d
/five{1303 0 158 -29 1124 1493 sc
221 1493 m
1014 1493 l
1014 1323 l
406 1323 l
406 957 l
435 967 465 974 494 979 c
523 984 553 987 582 987 c
749 987 881 941 978 850 c
1075 759 1124 635 1124 479 c
1124 318 1074 193 974 104 c
874 15 733 -29 551 -29 c
488 -29 424 -24 359 -13 c
294 -2 227 14 158 35 c
158 238 l
218 205 280 181 344 165 c
408 149 476 141 547 141 c
662 141 754 171 821 232 c
888 293 922 375 922 479 c
922 583 888 665 821 726 c
754 787 662 817 547 817 c
493 817 439 811 385 799 c
332 787 277 768 221 743 c
221 1493 l

ce} _d
/six{1303 0 143 -29 1174 1520 sc
676 827 m
585 827 513 796 460 734 c
407 672 381 587 381 479 c
381 372 407 287 460 224 c
513 162 585 131 676 131 c
767 131 838 162 891 224 c
944 287 971 372 971 479 c
971 587 944 672 891 734 c
838 796 767 827 676 827 c

1077 1460 m
1077 1276 l
1026 1300 975 1318 923 1331 c
872 1344 821 1350 770 1350 c
637 1350 535 1305 464 1215 c
394 1125 354 989 344 807 c
383 865 433 909 492 940 c
551 971 617 987 688 987 c
838 987 956 941 1043 850 c
1130 759 1174 636 1174 479 c
1174 326 1129 203 1038 110 c
947 17 827 -29 676 -29 c
503 -29 371 37 280 169 c
189 302 143 494 143 745 c
143 981 199 1169 311 1309 c
423 1450 573 1520 762 1520 c
813 1520 864 1515 915 1505 c
967 1495 1021 1480 1077 1460 c

ce} _d
/eight{1303 0 139 -29 1163 1520 sc
651 709 m
555 709 479 683 424 632 c
369 581 342 510 342 420 c
342 330 369 259 424 208 c
479 157 555 131 651 131 c
747 131 823 157 878 208 c
933 260 961 331 961 420 c
961 510 933 581 878 632 c
823 683 748 709 651 709 c

449 795 m
362 816 295 857 246 916 c
198 975 174 1048 174 1133 c
174 1252 216 1347 301 1416 c
386 1485 503 1520 651 1520 c
800 1520 916 1485 1001 1416 c
1086 1347 1128 1252 1128 1133 c
1128 1048 1104 975 1055 916 c
1007 857 940 816 854 795 c
951 772 1027 728 1081 662 c
1136 596 1163 515 1163 420 c
1163 275 1119 164 1030 87 c
942 10 816 -29 651 -29 c
486 -29 360 10 271 87 c
183 164 139 275 139 420 c
139 515 166 596 221 662 c
276 728 352 772 449 795 c

375 1114 m
375 1037 399 976 447 933 c
496 890 564 868 651 868 c
738 868 805 890 854 933 c
903 976 928 1037 928 1114 c
928 1191 903 1252 854 1295 c
805 1338 738 1360 651 1360 c
564 1360 496 1338 447 1295 c
399 1252 375 1191 375 1114 c

ce} _d
end readonly def

/BuildGlyph {
 exch begin
 CharStrings exch
 2 copy known not {pop /.notdef} if
 true 3 1 roll get exec
 end
} _d

/BuildChar {
 1 index /Encoding get exch get
 1 index /BuildGlyph get exec
} _d

FontName currentdict end definefont pop
%!PS-Adobe-3.0 Resource-Font
%%Creator: Converted from TrueType to Type 3 by Matplotlib.
10 dict begin
/FontName /DejaVuSans-Oblique def
/PaintType 0 def
/FontMatrix [0.00048828125 0 0 0.00048828125 0 0] def
/FontBBox [-2080 -717 3398 2187] def
/FontType 3 def
/Encoding [/P /J /k /T] def
/CharStrings 5 dict dup begin
/.notdef 0 def
/P{1235 0 55 0 1231 1493 sc
346 1493 m
813 1493 l
949 1493 1053 1461 1124 1398 c
1195 1335 1231 1242 1231 1120 c
1231 956 1178 828 1073 737 c
968 646 820 600 629 600 c
375 600 l
258 0 l
55 0 l
346 1493 l

516 1327 m
408 766 l
662 766 l
777 766 865 795 926 854 c
987 913 1018 997 1018 1106 c
1018 1176 997 1230 955 1269 c
914 1308 855 1327 780 1327 c
516 1327 l

ce} _d
/J{604 0 -336 -410 545 1493 sc
342 1493 m
545 1493 l
274 104 l
239 -77 179 -207 95 -288 c
12 -369 -105 -410 -256 -410 c
-336 -410 l
-303 -240 l
-240 -240 l
-150 -240 -82 -214 -35 -163 c
12 -112 47 -23 72 104 c
342 1493 l

ce} _d
/k{1186 0 72 0 1253 1556 sc
375 1556 m
559 1556 l
383 649 l
1014 1120 l
1253 1120 l
549 584 l
1063 0 l
840 0 l
362 547 l
256 0 l
72 0 l
375 1556 l

ce} _d
/T{1251 0 88 0 1384 1493 sc
121 1493 m
1384 1493 l
1352 1323 l
819 1323 l
563 0 l
360 0 l
616 1323 l
88 1323 l
121 1493 l

ce} _d
end readonly def

/BuildGlyph {
 exch begin
 CharStrings exch
 2 copy known not {pop /.notdef} if
 true 3 1 roll get exec
 end
} _d

/BuildChar {
 1 index /Encoding get exch get
 1 index /BuildGlyph get exec
} _d

FontName currentdict end definefont pop
end
%%EndProlog
mpldict begin
0 0 translate
0 0 460.8 345.6 rectclip
gsave
0 0 m
460.8 0 l
460.8 345.6 l
0 345.6 l
cl
1 setgray
fill
grestore
gsave
57.6 38.016 m
414.72 38.016 l
414.72 304.128 l
57.6 304.128 l
cl
1 setgray
fill
grestore
1 setlinewidth
1 setlinejoin
0 setlinecap
[] 0 setdash
0 setgray
gsave
57.6 38.016 357.12 266.112 rectclip
/o {
gsave
newpath
translate
1.0 setlinewidth
1 setlinejoin

0 setlinecap

0 2.12132 m
-0.476266 0.655524 l
-2.017496 0.655524 l
-0.770615 -0.250388 l
-1.246881 -1.716184 l
-0 -0.810272 l
1.246881 -1.716184 l
0.770615 -0.250388 l
2.017496 0.655524 l
0.476266 0.655524 l
cl

gsave
0 setgray
fill
grestore
stroke
grestore
} bind def
379.646 84.1519 o
379.646 89.207 o
379.646 94.8159 o
376.457 101.039 o
376.457 107.945 o
376.457 115.607 o
376.457 124.109 o
376.457 133.542 o
376.457 144.008 o
376.457 155.622 o
376.457 168.508 o
376.457 182.806 o
379.646 198.671 o
386.023 216.273 o
389.212 235.805 o
395.588 257.477 o
405.154 281.523 o
414.72 308.204 o
414.72 337.808 o
414.72 346.6 o
grestore
gsave
57.6 38.016 357.12 266.112 rectclip
/o {
gsave
newpath
translate
1.0 setlinewidth
1 setlinejoin

0 setlinecap

0 2.12132 m
-0.476266 0.655524 l
-2.017496 0.655524 l
-0.770615 -0.250388 l
-1.246881 -1.716184 l
-0 -0.810272 l
1.246881 -1.716184 l
0.770615 -0.250388 l
2.017496 0.655524 l
0.476266 0.655524 l
cl

gsave
0 setgray
fill
grestore
stroke
grestore
} bind def
92.6744 84.1519 o
92.6744 89.207 o
92.6744 94.8159 o
92.6744 101.039 o
92.6744 107.945 o
92.6744 115.607 o
92.6744 124.109 o
92.6744 133.542 o
92.6744 144.008 o
92.6744 155.622 o
92.6744 168.508 o
89.4856 182.806 o
86.2971 198.671 o
79.92 216.273 o
73.5429 235.805 o
67.1656 257.477 o
60.7885 281.523 o
57.6 308.204 o
57.6 337.808 o
57.6 346.6 o
grestore
1.5 setlinewidth
gsave
57.6 38.016 357.12 266.112 rectclip
/o {
gsave
newpath
translate
1.5 setlinewidth
1 setlinejoin

0 setlinecap

-1.732051 0 m
1.732051 0 l
0 -1.732051 m
0 1.732051 l

gsave
0 setgray
fill
grestore
stroke
grestore
} bind def
92.6743 172.266 o
92.6743 167.41 o
92.6743 174.762 o
92.6743 169.815 o
92.6743 172.266 o
92.6743 179.894 o
92.6743 174.762 o
92.6743 182.531 o
92.6743 174.762 o
92.6743 177.304 o
95.8629 169.815 o
95.8629 169.815 o
95.8629 167.41 o
95.8629 169.815 o
95.8629 167.41 o
95.8629 177.304 o
95.8629 174.762 o
95.8629 160.453 o
95.8629 156.025 o
95.8629 167.41 o
99.0513 167.41 o
99.0513 177.304 o
99.0513 174.762 o
99.0513 167.41 o
99.0513 169.815 o
99.0513 167.41 o
99.0513 169.815 o
99.0513 174.762 o
99.0513 153.871 o
99.0513 174.762 o
102.24 174.762 o
102.24 167.41 o
102.24 167.41 o
102.24 162.729 o
102.24 160.453 o
102.24 167.41 o
102.24 177.304 o
102.24 156.025 o
102.24 172.266 o
102.24 172.266 o
105.429 169.815 o
105.429 165.049 o
105.429 165.049 o
105.429 169.815 o
105.429 167.41 o
105.429 169.815 o
105.429 160.453 o
105.429 165.049 o
105.429 156.025 o
105.429 169.815 o
108.617 167.41 o
108.617 177.304 o
108.617 162.729 o
108.617 174.762 o
108.617 172.266 o
108.617 172.266 o
108.617 160.453 o
108.617 160.453 o
108.617 162.729 o
108.617 169.815 o
111.806 172.266 o
111.806 177.304 o
111.806 172.266 o
111.806 165.049 o
111.806 179.894 o
111.806 158.219 o
111.806 167.41 o
111.806 167.41 o
111.806 147.643 o
111.806 167.41 o
114.994 162.729 o
114.994 151.756 o
114.994 165.049 o
114.994 153.871 o
114.994 162.729 o
114.994 165.049 o
114.994 160.453 o
114.994 177.304 o
114.994 167.41 o
114.994 156.025 o
118.183 169.815 o
118.183 153.871 o
118.183 158.219 o
118.183 160.453 o
118.183 162.729 o
118.183 160.453 o
118.183 162.729 o
118.183 160.453 o
118.183 149.68 o
118.183 162.729 o
121.371 160.453 o
121.371 151.756 o
121.371 156.025 o
121.371 153.871 o
121.371 167.41 o
121.371 162.729 o
121.371 143.677 o
121.371 160.453 o
121.371 172.266 o
121.371 149.68 o
124.56 158.219 o
124.56 169.815 o
124.56 158.219 o
124.56 158.219 o
124.56 172.266 o
124.56 165.049 o
124.56 174.762 o
124.56 141.748 o
124.56 156.025 o
124.56 153.871 o
127.749 153.871 o
127.749 160.453 o
127.749 162.729 o
127.749 167.41 o
127.749 156.025 o
127.749 167.41 o
127.749 169.815 o
127.749 162.729 o
127.749 156.025 o
127.749 158.219 o
130.937 156.025 o
130.937 156.025 o
130.937 156.025 o
130.937 160.453 o
130.937 160.453 o
130.937 156.025 o
130.937 158.219 o
130.937 165.049 o
130.937 149.68 o
130.937 160.453 o
134.126 169.815 o
134.126 162.729 o
134.126 141.748 o
134.126 169.815 o
134.126 158.219 o
134.126 162.729 o
134.126 167.41 o
134.126 147.643 o
134.126 153.871 o
134.126 165.049 o
137.314 167.41 o
137.314 156.025 o
137.314 160.453 o
137.314 156.025 o
137.314 147.643 o
137.314 156.025 o
137.314 167.41 o
137.314 160.453 o
137.314 167.41 o
137.314 153.871 o
140.503 151.756 o
140.503 165.049 o
140.503 165.049 o
140.503 165.049 o
140.503 172.266 o
140.503 145.642 o
140.503 153.871 o
140.503 160.453 o
140.503 167.41 o
140.503 162.729 o
143.691 169.815 o
143.691 158.219 o
143.691 149.68 o
143.691 137.996 o
143.691 167.41 o
143.691 153.871 o
143.691 156.025 o
143.691 156.025 o
143.691 160.453 o
143.691 165.049 o
146.88 156.025 o
146.88 158.219 o
146.88 165.049 o
146.88 153.871 o
146.88 162.729 o
146.88 153.871 o
146.88 167.41 o
146.88 169.815 o
146.88 160.453 o
146.88 165.049 o
150.069 153.871 o
150.069 162.729 o
150.069 162.729 o
150.069 156.025 o
150.069 151.756 o
150.069 165.049 o
150.069 156.025 o
150.069 147.643 o
150.069 156.025 o
150.069 145.642 o
153.257 158.219 o
153.257 177.304 o
153.257 158.219 o
153.257 143.677 o
153.257 139.855 o
153.257 160.453 o
153.257 158.219 o
153.257 162.729 o
153.257 147.643 o
153.257 160.453 o
156.446 156.025 o
156.446 165.049 o
156.446 147.643 o
156.446 149.68 o
156.446 156.025 o
156.446 169.815 o
156.446 153.871 o
156.446 182.531 o
156.446 158.219 o
156.446 153.871 o
159.634 153.871 o
159.634 145.642 o
159.634 158.219 o
159.634 158.219 o
159.634 143.677 o
159.634 160.453 o
159.634 165.049 o
159.634 145.642 o
159.634 145.642 o
159.634 160.453 o
162.823 156.025 o
162.823 160.453 o
162.823 158.219 o
162.823 167.41 o
162.823 151.756 o
162.823 153.871 o
162.823 147.643 o
162.823 156.025 o
162.823 167.41 o
162.823 153.871 o
166.011 145.642 o
166.011 151.756 o
166.011 145.642 o
166.011 158.219 o
166.011 158.219 o
166.011 151.756 o
166.011 137.996 o
166.011 149.68 o
166.011 151.756 o
166.011 143.677 o
169.2 151.756 o
169.2 165.049 o
169.2 143.677 o
169.2 153.871 o
169.2 136.171 o
169.2 160.453 o
169.2 147.643 o
169.2 147.643 o
169.2 160.453 o
169.2 147.643 o
172.389 143.677 o
172.389 149.68 o
172.389 145.642 o
172.389 130.894 o
172.389 137.996 o
172.389 145.642 o
172.389 162.729 o
172.389 151.756 o
172.389 160.453 o
172.389 167.41 o
175.577 162.729 o
175.577 158.219 o
175.577 151.756 o
175.577 156.025 o
175.577 124.297 o
175.577 158.219 o
175.577 151.756 o
175.577 141.748 o
175.577 158.219 o
175.577 169.815 o
178.766 162.729 o
178.766 162.729 o
178.766 156.025 o
178.766 149.68 o
178.766 149.68 o
178.766 147.643 o
178.766 151.756 o
178.766 156.025 o
178.766 137.996 o
178.766 160.453 o
181.954 158.219 o
181.954 169.815 o
181.954 156.025 o
181.954 149.68 o
181.954 162.729 o
181.954 169.815 o
181.954 160.453 o
181.954 158.219 o
181.954 151.756 o
181.954 158.219 o
185.143 158.219 o
185.143 169.815 o
185.143 147.643 o
185.143 156.025 o
185.143 149.68 o
185.143 167.41 o
185.143 151.756 o
185.143 165.049 o
185.143 143.677 o
185.143 158.219 o
188.331 137.996 o
188.331 151.756 o
188.331 132.621 o
188.331 169.815 o
188.331 137.996 o
188.331 149.68 o
188.331 137.996 o
188.331 149.68 o
188.331 165.049 o
188.331 156.025 o
191.52 134.38 o
191.52 141.748 o
191.52 137.996 o
191.52 145.642 o
191.52 149.68 o
191.52 151.756 o
191.52 149.68 o
191.52 153.871 o
191.52 149.68 o
191.52 139.855 o
194.709 158.219 o
194.709 162.729 o
194.709 147.643 o
194.709 165.049 o
194.709 158.219 o
194.709 153.871 o
194.709 147.643 o
194.709 149.68 o
194.709 165.049 o
194.709 160.453 o
197.897 147.643 o
197.897 160.453 o
197.897 165.049 o
197.897 162.729 o
197.897 158.219 o
197.897 162.729 o
197.897 165.049 o
197.897 158.219 o
197.897 136.171 o
197.897 158.219 o
201.086 153.871 o
201.086 145.642 o
201.086 156.025 o
201.086 139.855 o
201.086 158.219 o
201.086 147.643 o
201.086 137.996 o
201.086 153.871 o
201.086 167.41 o
201.086 139.855 o
204.274 151.756 o
204.274 158.219 o
204.274 162.729 o
204.274 156.025 o
204.274 137.996 o
204.274 134.38 o
204.274 160.453 o
204.274 147.643 o
204.274 145.642 o
204.274 147.643 o
207.463 147.643 o
207.463 165.049 o
207.463 125.901 o
207.463 125.901 o
207.463 160.453 o
207.463 141.748 o
207.463 160.453 o
207.463 162.729 o
207.463 141.748 o
207.463 156.025 o
210.651 156.025 o
210.651 125.901 o
210.651 145.642 o
210.651 118.168 o
210.651 132.621 o
210.651 149.68 o
210.651 145.642 o
210.651 147.643 o
210.651 149.68 o
210.651 162.729 o
213.84 145.642 o
213.84 151.756 o
213.84 149.68 o
213.84 160.453 o
213.84 156.025 o
213.84 147.643 o
213.84 147.643 o
213.84 143.677 o
213.84 149.68 o
213.84 147.643 o
217.029 153.871 o
217.029 149.68 o
217.029 141.748 o
217.029 156.025 o
217.029 153.871 o
217.029 158.219 o
217.029 139.855 o
217.029 158.219 o
217.029 149.68 o
217.029 145.642 o
220.217 172.266 o
220.217 167.41 o
220.217 156.025 o
220.217 162.729 o
220.217 151.756 o
220.217 145.642 o
220.217 149.68 o
220.217 167.41 o
220.217 151.756 o
220.217 149.68 o
223.406 156.025 o
223.406 156.025 o
223.406 158.219 o
223.406 158.219 o
223.406 151.756 o
223.406 160.453 o
223.406 160.453 o
223.406 158.219 o
223.406 153.871 o
223.406 156.025 o
226.594 127.535 o
226.594 149.68 o
226.594 158.219 o
226.594 174.762 o
226.594 145.642 o
226.594 153.871 o
226.594 143.677 o
226.594 139.855 o
226.594 151.756 o
226.594 136.171 o
229.783 158.219 o
229.783 143.677 o
229.783 149.68 o
229.783 139.855 o
229.783 147.643 o
229.783 143.677 o
229.783 149.68 o
229.783 165.049 o
229.783 160.453 o
229.783 145.642 o
232.971 156.025 o
232.971 156.025 o
232.971 149.68 o
232.971 149.68 o
232.971 158.219 o
232.971 153.871 o
232.971 156.025 o
232.971 147.643 o
232.971 153.871 o
232.971 156.025 o
236.16 149.68 o
236.16 153.871 o
236.16 141.748 o
236.16 160.453 o
236.16 147.643 o
236.16 145.642 o
236.16 156.025 o
236.16 162.729 o
236.16 145.642 o
236.16 160.453 o
239.349 167.41 o
239.349 162.729 o
239.349 158.219 o
239.349 162.729 o
239.349 143.677 o
239.349 149.68 o
239.349 151.756 o
239.349 165.049 o
239.349 145.642 o
239.349 153.871 o
242.537 156.025 o
242.537 143.677 o
242.537 153.871 o
242.537 156.025 o
242.537 153.871 o
242.537 145.642 o
242.537 149.68 o
242.537 167.41 o
242.537 151.756 o
242.537 137.996 o
245.726 149.68 o
245.726 139.855 o
245.726 156.025 o
245.726 153.871 o
245.726 151.756 o
245.726 149.68 o
245.726 141.748 o
245.726 151.756 o
245.726 167.41 o
245.726 141.748 o
248.914 153.871 o
248.914 156.025 o
248.914 145.642 o
248.914 151.756 o
248.914 165.049 o
248.914 151.756 o
248.914 134.38 o
248.914 172.266 o
248.914 153.871 o
248.914 132.621 o
252.103 149.68 o
252.103 147.643 o
252.103 156.025 o
252.103 165.049 o
252.103 156.025 o
252.103 134.38 o
252.103 158.219 o
252.103 160.453 o
252.103 149.68 o
252.103 153.871 o
255.291 160.453 o
255.291 165.049 o
255.291 153.871 o
255.291 165.049 o
255.291 151.756 o
255.291 141.748 o
255.291 151.756 o
255.291 137.996 o
255.291 149.68 o
255.291 162.729 o
258.48 143.677 o
258.48 153.871 o
258.48 165.049 o
258.48 151.756 o
258.48 158.219 o
258.48 153.871 o
258.48 143.677 o
258.48 143.677 o
258.48 130.894 o
258.48 158.219 o
261.669 151.756 o
261.669 149.68 o
261.669 153.871 o
261.669 137.996 o
261.669 147.643 o
261.669 158.219 o
261.669 149.68 o
261.669 160.453 o
261.669 160.453 o
261.669 160.453 o
264.857 151.756 o
264.857 158.219 o
264.857 153.871 o
264.857 134.38 o
264.857 156.025 o
264.857 151.756 o
264.857 158.219 o
264.857 165.049 o
264.857 158.219 o
264.857 149.68 o
268.046 145.642 o
268.046 156.025 o
268.046 158.219 o
268.046 143.677 o
268.046 145.642 o
268.046 139.855 o
268.046 145.642 o
268.046 153.871 o
268.046 137.996 o
268.046 147.643 o
271.234 139.855 o
271.234 151.756 o
271.234 174.762 o
271.234 134.38 o
271.234 153.871 o
271.234 153.871 o
271.234 136.171 o
271.234 145.642 o
271.234 147.643 o
271.234 149.68 o
274.423 162.729 o
274.423 158.219 o
274.423 147.643 o
274.423 147.643 o
274.423 149.68 o
274.423 156.025 o
274.423 141.748 o
274.423 139.855 o
274.423 160.453 o
274.423 149.68 o
277.611 165.049 o
277.611 165.049 o
277.611 156.025 o
277.611 158.219 o
277.611 156.025 o
277.611 156.025 o
277.611 153.871 o
277.611 149.68 o
277.611 139.855 o
277.611 153.871 o
280.8 145.642 o
280.8 156.025 o
280.8 151.756 o
280.8 156.025 o
280.8 134.38 o
280.8 145.642 o
280.8 158.219 o
280.8 167.41 o
280.8 149.68 o
280.8 158.219 o
283.989 153.871 o
283.989 160.453 o
283.989 147.643 o
283.989 165.049 o
283.989 151.756 o
283.989 147.643 o
283.989 156.025 o
283.989 167.41 o
283.989 167.41 o
283.989 162.729 o
287.177 141.748 o
287.177 160.453 o
287.177 156.025 o
287.177 143.677 o
287.177 169.815 o
287.177 162.729 o
287.177 145.642 o
287.177 158.219 o
287.177 149.68 o
287.177 167.41 o
290.366 147.643 o
290.366 167.41 o
290.366 139.855 o
290.366 147.643 o
290.366 149.68 o
290.366 145.642 o
290.366 156.025 o
290.366 162.729 o
290.366 137.996 o
290.366 151.756 o
293.554 153.871 o
293.554 158.219 o
293.554 156.025 o
293.554 177.304 o
293.554 145.642 o
293.554 151.756 o
293.554 143.677 o
293.554 165.049 o
293.554 162.729 o
293.554 145.642 o
296.743 143.677 o
296.743 145.642 o
296.743 132.621 o
296.743 151.756 o
296.743 149.68 o
296.743 160.453 o
296.743 162.729 o
296.743 127.535 o
296.743 169.815 o
296.743 153.871 o
299.931 162.729 o
299.931 158.219 o
299.931 162.729 o
299.931 141.748 o
299.931 156.025 o
299.931 160.453 o
299.931 153.871 o
299.931 151.756 o
299.931 165.049 o
299.931 162.729 o
303.12 160.453 o
303.12 160.453 o
303.12 160.453 o
303.12 162.729 o
303.12 147.643 o
303.12 151.756 o
303.12 160.453 o
303.12 160.453 o
303.12 156.025 o
303.12 149.68 o
306.309 165.049 o
306.309 143.677 o
306.309 136.171 o
306.309 147.643 o
306.309 125.901 o
306.309 160.453 o
306.309 162.729 o
306.309 139.855 o
306.309 153.871 o
306.309 147.643 o
309.497 147.643 o
309.497 145.642 o
309.497 151.756 o
309.497 153.871 o
309.497 162.729 o
309.497 162.729 o
309.497 118.168 o
309.497 169.815 o
309.497 156.025 o
309.497 169.815 o
312.686 137.996 o
312.686 137.996 o
312.686 147.643 o
312.686 147.643 o
312.686 151.756 o
312.686 156.025 o
312.686 141.748 o
312.686 151.756 o
312.686 137.996 o
312.686 162.729 o
315.874 153.871 o
315.874 156.025 o
315.874 160.453 o
315.874 156.025 o
315.874 160.453 o
315.874 147.643 o
315.874 149.68 o
315.874 137.996 o
315.874 162.729 o
315.874 162.729 o
319.063 174.762 o
319.063 151.756 o
319.063 149.68 o
319.063 162.729 o
319.063 147.643 o
319.063 158.219 o
319.063 162.729 o
319.063 143.677 o
319.063 162.729 o
319.063 167.41 o
322.251 156.025 o
322.251 162.729 o
322.251 147.643 o
322.251 149.68 o
322.251 156.025 o
322.251 151.756 o
322.251 145.642 o
322.251 149.68 o
322.251 149.68 o
322.251 158.219 o
325.44 151.756 o
325.44 172.266 o
325.44 156.025 o
325.44 158.219 o
325.44 145.642 o
325.44 153.871 o
325.44 151.756 o
325.44 162.729 o
325.44 147.643 o
325.44 130.894 o
328.629 162.729 o
328.629 158.219 o
328.629 156.025 o
328.629 143.677 o
328.629 153.871 o
328.629 153.871 o
328.629 162.729 o
328.629 156.025 o
328.629 162.729 o
328.629 158.219 o
331.817 169.815 o
331.817 167.41 o
331.817 141.748 o
331.817 149.68 o
331.817 165.049 o
331.817 130.894 o
331.817 160.453 o
331.817 147.643 o
331.817 169.815 o
331.817 165.049 o
335.006 165.049 o
335.006 153.871 o
335.006 169.815 o
335.006 151.756 o
335.006 162.729 o
335.006 165.049 o
335.006 158.219 o
335.006 153.871 o
335.006 158.219 o
335.006 143.677 o
338.194 158.219 o
338.194 151.756 o
338.194 149.68 o
338.194 158.219 o
338.194 153.871 o
338.194 177.304 o
338.194 162.729 o
338.194 160.453 o
338.194 153.871 o
338.194 149.68 o
341.383 143.677 o
341.383 160.453 o
341.383 169.815 o
341.383 160.453 o
341.383 158.219 o
341.383 147.643 o
341.383 160.453 o
341.383 158.219 o
341.383 156.025 o
341.383 153.871 o
344.571 169.815 o
344.571 169.815 o
344.571 160.453 o
344.571 143.677 o
344.571 156.025 o
344.571 162.729 o
344.571 153.871 o
344.571 158.219 o
344.571 149.68 o
344.571 165.049 o
347.76 160.453 o
347.76 165.049 o
347.76 145.642 o
347.76 160.453 o
347.76 162.729 o
347.76 145.642 o
347.76 162.729 o
347.76 158.219 o
347.76 167.41 o
347.76 158.219 o
350.949 160.453 o
350.949 167.41 o
350.949 162.729 o
350.949 149.68 o
350.949 151.756 o
350.949 162.729 o
350.949 156.025 o
350.949 153.871 o
350.949 149.68 o
350.949 167.41 o
354.137 177.304 o
354.137 167.41 o
354.137 160.453 o
354.137 165.049 o
354.137 153.871 o
354.137 167.41 o
354.137 172.266 o
354.137 156.025 o
354.137 167.41 o
354.137 179.894 o
357.326 158.219 o
357.326 174.762 o
357.326 165.049 o
357.326 172.266 o
357.326 162.729 o
357.326 160.453 o
357.326 169.815 o
357.326 160.453 o
357.326 167.41 o
357.326 172.266 o
360.514 169.815 o
360.514 149.68 o
360.514 169.815 o
360.514 160.453 o
360.514 167.41 o
360.514 162.729 o
360.514 169.815 o
360.514 165.049 o
360.514 172.266 o
360.514 169.815 o
363.703 162.729 o
363.703 158.219 o
363.703 172.266 o
363.703 169.815 o
363.703 169.815 o
363.703 172.266 o
363.703 167.41 o
363.703 172.266 o
363.703 169.815 o
363.703 165.049 o
366.891 169.815 o
366.891 165.049 o
366.891 167.41 o
366.891 169.815 o
366.891 160.453 o
366.891 177.304 o
366.891 167.41 o
366.891 167.41 o
366.891 169.815 o
366.891 167.41 o
370.08 165.049 o
370.08 162.729 o
370.08 172.266 o
370.08 182.531 o
370.08 177.304 o
370.08 160.453 o
370.08 167.41 o
370.08 172.266 o
370.08 162.729 o
370.08 179.894 o
373.269 182.531 o
373.269 169.815 o
373.269 167.41 o
373.269 169.815 o
373.269 156.025 o
373.269 169.815 o
373.269 179.894 o
373.269 172.266 o
373.269 167.41 o
373.269 169.815 o
376.457 185.218 o
376.457 167.41 o
376.457 179.894 o
376.457 167.41 o
376.457 174.762 o
376.457 167.41 o
376.457 172.266 o
376.457 172.266 o
376.457 177.304 o
376.457 156.025 o
grestore
0.8 setlinewidth
gsave
/o {
gsave
newpath
translate
0.8 setlinewidth
1 setlinejoin

0 setlinecap

0 0 m
0 -3.5 l

gsave
0 setgray
fill
grestore
stroke
grestore
} bind def
57.6 38.016 o
grestore
/DejaVuSans 10.000 selectfont
gsave

49.6469 23.4222 translate
0 rotate
0 0 m /zero glyphshow
6.3623 0 m /period glyphshow
9.54102 0 m /zero glyphshow
grestore
gsave
/o {
gsave
newpath
translate
0.8 setlinewidth
1 setlinejoin

0 setlinecap

0 0 m
0 -3.5 l

gsave
0 setgray
fill
grestore
stroke
grestore
} bind def
129.024 38.016 o
grestore
/DejaVuSans 10.000 selectfont
gsave

121.071 23.4222 translate
0 rotate
0 0 m /zero glyphshow
6.3623 0 m /period glyphshow
9.54102 0 m /two glyphshow
grestore
gsave
/o {
gsave
newpath
translate
0.8 setlinewidth
1 setlinejoin

0 setlinecap

0 0 m
0 -3.5 l

gsave
0 setgray
fill
grestore
stroke
grestore
} bind def
200.448 38.016 o
grestore
/DejaVuSans 10.000 selectfont
gsave

192.495 23.4222 translate
0 rotate
0 0 m /zero glyphshow
6.3623 0 m /period glyphshow
9.54102 0 m /four glyphshow
grestore
gsave
/o {
gsave
newpath
translate
0.8 setlinewidth
1 setlinejoin

0 setlinecap

0 0 m
0 -3.5 l

gsave
0 setgray
fill
grestore
stroke
grestore
} bind def
271.872 38.016 o
grestore
/DejaVuSans 10.000 selectfont
gsave

263.919 23.4222 translate
0 rotate
0 0 m /zero glyphshow
6.3623 0 m /period glyphshow
9.54102 0 m /six glyphshow
grestore
gsave
/o {
gsave
newpath
translate
0.8 setlinewidth
1 setlinejoin

0 setlinecap

0 0 m
0 -3.5 l

gsave
0 setgray
fill
grestore
stroke
grestore
} bind def
343.296 38.016 o
grestore
/DejaVuSans 10.000 selectfont
gsave

335.343 23.4222 translate
0 rotate
0 0 m /zero glyphshow
6.3623 0 m /period glyphshow
9.54102 0 m /eight glyphshow
grestore
gsave
/o {
gsave
newpath
translate
0.8 setlinewidth
1 setlinejoin

0 setlinecap

0 0 m
0 -3.5 l

gsave
0 setgray
fill
grestore
stroke
grestore
} bind def
414.72 38.016 o
grestore
/DejaVuSans 10.000 selectfont
gsave

406.767 23.4222 translate
0 rotate
0 0 m /one glyphshow
6.3623 0 m /period glyphshow
9.54102 0 m /zero glyphshow
grestore
gsave
227.16 6.34412 translate
0 rotate
/DejaVuSans-Oblique 14.0 selectfont
0 0.796875 moveto
/P glyphshow
/DejaVuSans 9.799999999999999 selectfont
8.44238 -1.5 moveto
/plus glyphshow
grestore
gsave
/o {
gsave
newpath
translate
0.8 setlinewidth
1 setlinejoin

0 setlinecap

-0 0 m
-3.5 0 l

gsave
0 setgray
fill
grestore
stroke
grestore
} bind def
57.6 38.016 o
grestore
/DejaVuSans 10.000 selectfont
gsave

34.6938 34.2191 translate
0 rotate
0 0 m /zero glyphshow
6.3623 0 m /period glyphshow
9.54102 0 m /zero glyphshow
grestore
gsave
/o {
gsave
newpath
translate
0.8 setlinewidth
1 setlinejoin

0 setlinecap

-0 0 m
-3.5 0 l

gsave
0 setgray
fill
grestore
stroke
grestore
} bind def
57.6 79.596 o
grestore
/DejaVuSans 10.000 selectfont
gsave

34.6938 75.7991 translate
0 rotate
0 0 m /zero glyphshow
6.3623 0 m /period glyphshow
9.54102 0 m /five glyphshow
grestore
gsave
/o {
gsave
newpath
translate
0.8 setlinewidth
1 setlinejoin

0 setlinecap

-0 0 m
-3.5 0 l

gsave
0 setgray
fill
grestore
stroke
grestore
} bind def
57.6 121.176 o
grestore
/DejaVuSans 10.000 selectfont
gsave

34.6938 117.379 translate
0 rotate
0 0 m /one glyphshow
6.3623 0 m /period glyphshow
9.54102 0 m /zero glyphshow
grestore
gsave
/o {
gsave
newpath
translate
0.8 setlinewidth
1 setlinejoin

0 setlinecap

-0 0 m
-3.5 0 l

gsave
0 setgray
fill
grestore
stroke
grestore
} bind def
57.6 162.756 o
grestore
/DejaVuSans 10.000 selectfont
gsave

34.6938 158.959 translate
0 rotate
0 0 m /one glyphshow
6.3623 0 m /period glyphshow
9.54102 0 m /five glyphshow
grestore
gsave
/o {
gsave
newpath
translate
0.8 setlinewidth
1 setlinejoin

0 setlinecap

-0 0 m
-3.5 0 l

gsave
0 setgray
fill
grestore
stroke
grestore
} bind def
57.6 204.336 o
grestore
/DejaVuSans 10.000 selectfont
gsave

34.6938 200.539 translate
0 rotate
0 0 m /two glyphshow
6.3623 0 m /period glyphshow
9.54102 0 m /zero glyphshow
grestore
gsave
/o {
gsave
newpath
translate
0.8 setlinewidth
1 setlinejoin

0 setlinecap

-0 0 m
-3.5 0 l

gsave
0 setgray
fill
grestore
stroke
grestore
} bind def
57.6 245.916 o
grestore
/DejaVuSans 10.000 selectfont
gsave

34.6938 242.119 translate
0 rotate
0 0 m /two glyphshow
6.3623 0 m /period glyphshow
9.54102 0 m /five glyphshow
grestore
gsave
/o {
gsave
newpath
translate
0.8 setlinewidth
1 setlinejoin

0 setlinecap

-0 0 m
-3.5 0 l

gsave
0 setgray
fill
grestore
stroke
grestore
} bind def
57.6 287.496 o
grestore
/DejaVuSans 10.000 selectfont
gsave

34.6938 283.699 translate
0 rotate
0 0 m /three glyphshow
6.3623 0 m /period glyphshow
9.54102 0 m /zero glyphshow
grestore
gsave
27.6938 158.072 translate
90 rotate
/DejaVuSans-Oblique 14.0 selectfont
0 0.359375 moveto
/k glyphshow
8.10742 0.359375 moveto
/T glyphshow
/DejaVuSans 14.0 selectfont
16.6592 0.359375 moveto
/slash glyphshow
/DejaVuSans-Oblique 14.0 selectfont
21.376 0.359375 moveto
/J glyphshow
grestore
0 setlinejoin
2 setlinecap
gsave
57.6 38.016 m
57.6 304.128 l
stroke
grestore
gsave
414.72 38.016 m
414.72 304.128 l
stroke
grestore
gsave
57.6 38.016 m
414.72 38.016 l
stroke
grestore
gsave
57.6 304.128 m
414.72 304.128 l
stroke
grestore

end
showpage
