%!PS-Adobe-3.0 EPSF-3.0
%%LanguageLevel: 3
%%Title: Chi(kT)_J0_8.eps
%%Creator: Matplotlib v3.8.4, https://matplotlib.org/
%%CreationDate: Mon May 13 12:36:15 2024
%%Orientation: portrait
%%BoundingBox: 0 0 461 346
%%HiResBoundingBox: 0.000000 0.000000 460.800000 345.600000
%%EndComments
%%BeginProlog
/mpldict 10 dict def
mpldict begin
/_d { bind def } bind def
/m { moveto } _d
/l { lineto } _d
/r { rlineto } _d
/c { curveto } _d
/cl { closepath } _d
/ce { closepath eofill } _d
/sc { setcachedevice } _d
%!PS-Adobe-3.0 Resource-Font
%%Creator: Converted from TrueType to Type 3 by Matplotlib.
10 dict begin
/FontName /DejaVuSans def
/PaintType 0 def
/FontMatrix [0.00048828125 0 0 0.00048828125 0 0] def
/FontBBox [-2090 -948 3673 2524] def
/FontType 3 def
/Encoding [/J /k /period /slash /zero /one /minus /two /T /four /six /five /eight /nine /seven /three] def
/CharStrings 17 dict dup begin
/.notdef 0 def
/J{604 0 -106 -410 403 1493 sc
201 1493 m
403 1493 l
403 104 l
403 -76 369 -207 300 -288 c
232 -369 122 -410 -29 -410 c
-106 -410 l
-106 -240 l
-43 -240 l
46 -240 109 -215 146 -165 c
183 -115 201 -25 201 104 c
201 1493 l

ce} _d
/k{1186 0 186 0 1180 1556 sc
186 1556 m
371 1556 l
371 637 l
920 1120 l
1155 1120 l
561 596 l
1180 0 l
940 0 l
371 547 l
371 0 l
186 0 l
186 1556 l

ce} _d
/period{651 0 219 0 430 254 sc
219 254 m
430 254 l
430 0 l
219 0 l
219 254 l

ce} _d
/slash{690 0 0 -190 690 1493 sc
520 1493 m
690 1493 l
170 -190 l
0 -190 l
520 1493 l

ce} _d
/zero{1303 0 135 -29 1167 1520 sc
651 1360 m
547 1360 469 1309 416 1206 c
364 1104 338 950 338 745 c
338 540 364 387 416 284 c
469 182 547 131 651 131 c
756 131 834 182 886 284 c
939 387 965 540 965 745 c
965 950 939 1104 886 1206 c
834 1309 756 1360 651 1360 c

651 1520 m
818 1520 946 1454 1034 1321 c
1123 1189 1167 997 1167 745 c
1167 494 1123 302 1034 169 c
946 37 818 -29 651 -29 c
484 -29 356 37 267 169 c
179 302 135 494 135 745 c
135 997 179 1189 267 1321 c
356 1454 484 1520 651 1520 c

ce} _d
/one{1303 0 225 0 1114 1493 sc
254 170 m
584 170 l
584 1309 l
225 1237 l
225 1421 l
582 1493 l
784 1493 l
784 170 l
1114 170 l
1114 0 l
254 0 l
254 170 l

ce} _d
/minus{1716 0 217 557 1499 727 sc
217 727 m
1499 727 l
1499 557 l
217 557 l
217 727 l

ce} _d
/two{1303 0 150 0 1098 1520 sc
393 170 m
1098 170 l
1098 0 l
150 0 l
150 170 l
227 249 331 356 463 489 c
596 623 679 709 713 748 c
778 821 823 882 848 932 c
874 983 887 1032 887 1081 c
887 1160 859 1225 803 1275 c
748 1325 675 1350 586 1350 c
523 1350 456 1339 385 1317 c
315 1295 240 1262 160 1217 c
160 1421 l
241 1454 317 1478 388 1495 c
459 1512 523 1520 582 1520 c
737 1520 860 1481 952 1404 c
1044 1327 1090 1223 1090 1094 c
1090 1033 1078 974 1055 919 c
1032 864 991 800 930 725 c
913 706 860 650 771 557 c
682 465 556 336 393 170 c

ce} _d
/T{1251 0 -6 0 1257 1493 sc
-6 1493 m
1257 1493 l
1257 1323 l
727 1323 l
727 0 l
524 0 l
524 1323 l
-6 1323 l
-6 1493 l

ce} _d
/four{1303 0 100 0 1188 1493 sc
774 1317 m
264 520 l
774 520 l
774 1317 l

721 1493 m
975 1493 l
975 520 l
1188 520 l
1188 352 l
975 352 l
975 0 l
774 0 l
774 352 l
100 352 l
100 547 l
721 1493 l

ce} _d
/six{1303 0 143 -29 1174 1520 sc
676 827 m
585 827 513 796 460 734 c
407 672 381 587 381 479 c
381 372 407 287 460 224 c
513 162 585 131 676 131 c
767 131 838 162 891 224 c
944 287 971 372 971 479 c
971 587 944 672 891 734 c
838 796 767 827 676 827 c

1077 1460 m
1077 1276 l
1026 1300 975 1318 923 1331 c
872 1344 821 1350 770 1350 c
637 1350 535 1305 464 1215 c
394 1125 354 989 344 807 c
383 865 433 909 492 940 c
551 971 617 987 688 987 c
838 987 956 941 1043 850 c
1130 759 1174 636 1174 479 c
1174 326 1129 203 1038 110 c
947 17 827 -29 676 -29 c
503 -29 371 37 280 169 c
189 302 143 494 143 745 c
143 981 199 1169 311 1309 c
423 1450 573 1520 762 1520 c
813 1520 864 1515 915 1505 c
967 1495 1021 1480 1077 1460 c

ce} _d
/five{1303 0 158 -29 1124 1493 sc
221 1493 m
1014 1493 l
1014 1323 l
406 1323 l
406 957 l
435 967 465 974 494 979 c
523 984 553 987 582 987 c
749 987 881 941 978 850 c
1075 759 1124 635 1124 479 c
1124 318 1074 193 974 104 c
874 15 733 -29 551 -29 c
488 -29 424 -24 359 -13 c
294 -2 227 14 158 35 c
158 238 l
218 205 280 181 344 165 c
408 149 476 141 547 141 c
662 141 754 171 821 232 c
888 293 922 375 922 479 c
922 583 888 665 821 726 c
754 787 662 817 547 817 c
493 817 439 811 385 799 c
332 787 277 768 221 743 c
221 1493 l

ce} _d
/eight{1303 0 139 -29 1163 1520 sc
651 709 m
555 709 479 683 424 632 c
369 581 342 510 342 420 c
342 330 369 259 424 208 c
479 157 555 131 651 131 c
747 131 823 157 878 208 c
933 260 961 331 961 420 c
961 510 933 581 878 632 c
823 683 748 709 651 709 c

449 795 m
362 816 295 857 246 916 c
198 975 174 1048 174 1133 c
174 1252 216 1347 301 1416 c
386 1485 503 1520 651 1520 c
800 1520 916 1485 1001 1416 c
1086 1347 1128 1252 1128 1133 c
1128 1048 1104 975 1055 916 c
1007 857 940 816 854 795 c
951 772 1027 728 1081 662 c
1136 596 1163 515 1163 420 c
1163 275 1119 164 1030 87 c
942 10 816 -29 651 -29 c
486 -29 360 10 271 87 c
183 164 139 275 139 420 c
139 515 166 596 221 662 c
276 728 352 772 449 795 c

375 1114 m
375 1037 399 976 447 933 c
496 890 564 868 651 868 c
738 868 805 890 854 933 c
903 976 928 1037 928 1114 c
928 1191 903 1252 854 1295 c
805 1338 738 1360 651 1360 c
564 1360 496 1338 447 1295 c
399 1252 375 1191 375 1114 c

ce} _d
/nine{1303 0 129 -29 1159 1520 sc
225 31 m
225 215 l
276 191 327 173 379 160 c
431 147 482 141 532 141 c
665 141 767 186 837 275 c
908 365 948 501 958 684 c
919 627 870 583 811 552 c
752 521 686 506 614 506 c
465 506 346 551 259 641 c
172 732 129 855 129 1012 c
129 1165 174 1288 265 1381 c
356 1474 476 1520 627 1520 c
800 1520 931 1454 1022 1321 c
1113 1189 1159 997 1159 745 c
1159 510 1103 322 991 181 c
880 41 730 -29 541 -29 c
490 -29 439 -24 387 -14 c
335 -4 281 11 225 31 c

627 664 m
718 664 789 695 842 757 c
895 819 922 904 922 1012 c
922 1119 895 1204 842 1266 c
789 1329 718 1360 627 1360 c
536 1360 464 1329 411 1266 c
358 1204 332 1119 332 1012 c
332 904 358 819 411 757 c
464 695 536 664 627 664 c

ce} _d
/seven{1303 0 168 0 1128 1493 sc
168 1493 m
1128 1493 l
1128 1407 l
586 0 l
375 0 l
885 1323 l
168 1323 l
168 1493 l

ce} _d
/three{1303 0 156 -29 1139 1520 sc
831 805 m
928 784 1003 741 1057 676 c
1112 611 1139 530 1139 434 c
1139 287 1088 173 987 92 c
886 11 742 -29 555 -29 c
492 -29 428 -23 361 -10 c
295 2 227 20 156 45 c
156 240 l
212 207 273 183 340 166 c
407 149 476 141 549 141 c
676 141 772 166 838 216 c
905 266 938 339 938 434 c
938 522 907 591 845 640 c
784 690 698 715 588 715 c
414 715 l
414 881 l
596 881 l
695 881 771 901 824 940 c
877 980 903 1037 903 1112 c
903 1189 876 1247 821 1288 c
767 1329 689 1350 588 1350 c
533 1350 473 1344 410 1332 c
347 1320 277 1301 201 1276 c
201 1456 l
278 1477 349 1493 416 1504 c
483 1515 547 1520 606 1520 c
759 1520 881 1485 970 1415 c
1059 1346 1104 1252 1104 1133 c
1104 1050 1080 980 1033 923 c
986 866 918 827 831 805 c

ce} _d
end readonly def

/BuildGlyph {
 exch begin
 CharStrings exch
 2 copy known not {pop /.notdef} if
 true 3 1 roll get exec
 end
} _d

/BuildChar {
 1 index /Encoding get exch get
 1 index /BuildGlyph get exec
} _d

FontName currentdict end definefont pop
%!PS-Adobe-3.0 Resource-Font
%%Creator: Converted from TrueType to Type 3 by Matplotlib.
10 dict begin
/FontName /DejaVuSans-Oblique def
/PaintType 0 def
/FontMatrix [0.00048828125 0 0 0.00048828125 0 0] def
/FontBBox [-2080 -717 3398 2187] def
/FontType 3 def
/Encoding [/chi] def
/CharStrings 2 dict dup begin
/.notdef 0 def
/chi{1212 0 -91 -427 1274 1121 sc
615 -250 m
541 133 l
126 -427 l
-91 -427 l
497 365 l
406 836 l
390 920 331 962 228 962 c
179 962 l
209 1120 l
279 1118 l
450 1113 547 1055 568 944 c
642 561 l
1057 1121 l
1274 1121 l
686 329 l
777 -142 l
793 -226 852 -268 955 -268 c
1004 -268 l
974 -426 l
904 -424 l
733 -419 636 -361 615 -250 c

ce} _d
end readonly def

/BuildGlyph {
 exch begin
 CharStrings exch
 2 copy known not {pop /.notdef} if
 true 3 1 roll get exec
 end
} _d

/BuildChar {
 1 index /Encoding get exch get
 1 index /BuildGlyph get exec
} _d

FontName currentdict end definefont pop
end
%%EndProlog
mpldict begin
0 0 translate
0 0 460.8 345.6 rectclip
gsave
0 0 m
460.8 0 l
460.8 345.6 l
0 345.6 l
cl
1 setgray
fill
grestore
gsave
57.6 38.016 m
414.72 38.016 l
414.72 304.128 l
57.6 304.128 l
cl
1 setgray
fill
grestore
0.8 setlinewidth
1 setlinejoin
0 setlinecap
[] 0 setdash
0 setgray
gsave
/o {
gsave
newpath
translate
0.8 setlinewidth
1 setlinejoin

0 setlinecap

0 0 m
0 -3.5 l

gsave
0 setgray
fill
grestore
stroke
grestore
} bind def
73.8327 38.016 o
grestore
gsave
57.3327 19.9222 translate
0 rotate
/DejaVuSans 14.0 selectfont
0 0.498438 moveto
/one glyphshow
8.90723 0.498438 moveto
/zero glyphshow
/DejaVuSans 9.799999999999999 selectfont
17.9484 5.85781 moveto
/minus glyphshow
26.1598 5.85781 moveto
/one glyphshow
grestore
gsave
/o {
gsave
newpath
translate
0.8 setlinewidth
1 setlinejoin

0 setlinecap

0 0 m
0 -3.5 l

gsave
0 setgray
fill
grestore
stroke
grestore
} bind def
236.16 38.016 o
grestore
gsave
223.66 19.9222 translate
0 rotate
/DejaVuSans 14.0 selectfont
0 0.367188 moveto
/one glyphshow
8.90723 0.367188 moveto
/zero glyphshow
/DejaVuSans 9.799999999999999 selectfont
17.9484 5.72656 moveto
/zero glyphshow
grestore
gsave
/o {
gsave
newpath
translate
0.8 setlinewidth
1 setlinejoin

0 setlinecap

0 0 m
0 -3.5 l

gsave
0 setgray
fill
grestore
stroke
grestore
} bind def
398.487 38.016 o
grestore
gsave
385.987 19.9222 translate
0 rotate
/DejaVuSans 14.0 selectfont
0 0.498438 moveto
/one glyphshow
8.90723 0.498438 moveto
/zero glyphshow
/DejaVuSans 9.799999999999999 selectfont
17.9484 5.85781 moveto
/one glyphshow
grestore
0.6 setlinewidth
gsave
/o {
gsave
newpath
translate
0.6 setlinewidth
1 setlinejoin

0 setlinecap

0 0 m
0 -2 l

gsave
0 setgray
fill
grestore
stroke
grestore
} bind def
58.1016 38.016 o
grestore
gsave
/o {
gsave
newpath
translate
0.6 setlinewidth
1 setlinejoin

0 setlinecap

0 0 m
0 -2 l

gsave
0 setgray
fill
grestore
stroke
grestore
} bind def
66.405 38.016 o
grestore
gsave
/o {
gsave
newpath
translate
0.6 setlinewidth
1 setlinejoin

0 setlinecap

0 0 m
0 -2 l

gsave
0 setgray
fill
grestore
stroke
grestore
} bind def
122.698 38.016 o
grestore
gsave
/o {
gsave
newpath
translate
0.6 setlinewidth
1 setlinejoin

0 setlinecap

0 0 m
0 -2 l

gsave
0 setgray
fill
grestore
stroke
grestore
} bind def
151.283 38.016 o
grestore
gsave
/o {
gsave
newpath
translate
0.6 setlinewidth
1 setlinejoin

0 setlinecap

0 0 m
0 -2 l

gsave
0 setgray
fill
grestore
stroke
grestore
} bind def
171.563 38.016 o
grestore
gsave
/o {
gsave
newpath
translate
0.6 setlinewidth
1 setlinejoin

0 setlinecap

0 0 m
0 -2 l

gsave
0 setgray
fill
grestore
stroke
grestore
} bind def
187.295 38.016 o
grestore
gsave
/o {
gsave
newpath
translate
0.6 setlinewidth
1 setlinejoin

0 setlinecap

0 0 m
0 -2 l

gsave
0 setgray
fill
grestore
stroke
grestore
} bind def
200.148 38.016 o
grestore
gsave
/o {
gsave
newpath
translate
0.6 setlinewidth
1 setlinejoin

0 setlinecap

0 0 m
0 -2 l

gsave
0 setgray
fill
grestore
stroke
grestore
} bind def
211.015 38.016 o
grestore
gsave
/o {
gsave
newpath
translate
0.6 setlinewidth
1 setlinejoin

0 setlinecap

0 0 m
0 -2 l

gsave
0 setgray
fill
grestore
stroke
grestore
} bind def
220.429 38.016 o
grestore
gsave
/o {
gsave
newpath
translate
0.6 setlinewidth
1 setlinejoin

0 setlinecap

0 0 m
0 -2 l

gsave
0 setgray
fill
grestore
stroke
grestore
} bind def
228.732 38.016 o
grestore
gsave
/o {
gsave
newpath
translate
0.6 setlinewidth
1 setlinejoin

0 setlinecap

0 0 m
0 -2 l

gsave
0 setgray
fill
grestore
stroke
grestore
} bind def
285.025 38.016 o
grestore
gsave
/o {
gsave
newpath
translate
0.6 setlinewidth
1 setlinejoin

0 setlinecap

0 0 m
0 -2 l

gsave
0 setgray
fill
grestore
stroke
grestore
} bind def
313.61 38.016 o
grestore
gsave
/o {
gsave
newpath
translate
0.6 setlinewidth
1 setlinejoin

0 setlinecap

0 0 m
0 -2 l

gsave
0 setgray
fill
grestore
stroke
grestore
} bind def
333.891 38.016 o
grestore
gsave
/o {
gsave
newpath
translate
0.6 setlinewidth
1 setlinejoin

0 setlinecap

0 0 m
0 -2 l

gsave
0 setgray
fill
grestore
stroke
grestore
} bind def
349.622 38.016 o
grestore
gsave
/o {
gsave
newpath
translate
0.6 setlinewidth
1 setlinejoin

0 setlinecap

0 0 m
0 -2 l

gsave
0 setgray
fill
grestore
stroke
grestore
} bind def
362.475 38.016 o
grestore
gsave
/o {
gsave
newpath
translate
0.6 setlinewidth
1 setlinejoin

0 setlinecap

0 0 m
0 -2 l

gsave
0 setgray
fill
grestore
stroke
grestore
} bind def
373.342 38.016 o
grestore
gsave
/o {
gsave
newpath
translate
0.6 setlinewidth
1 setlinejoin

0 setlinecap

0 0 m
0 -2 l

gsave
0 setgray
fill
grestore
stroke
grestore
} bind def
382.756 38.016 o
grestore
gsave
/o {
gsave
newpath
translate
0.6 setlinewidth
1 setlinejoin

0 setlinecap

0 0 m
0 -2 l

gsave
0 setgray
fill
grestore
stroke
grestore
} bind def
391.06 38.016 o
grestore
/DejaVuSans 14.000 selectfont
gsave

223.41 2.37537 translate
0 rotate
0 0 m /k glyphshow
8.10742 0 m /T glyphshow
16.6592 0 m /slash glyphshow
21.376 0 m /J glyphshow
grestore
0.8 setlinewidth
gsave
/o {
gsave
newpath
translate
0.8 setlinewidth
1 setlinejoin

0 setlinecap

-0 0 m
-3.5 0 l

gsave
0 setgray
fill
grestore
stroke
grestore
} bind def
57.6 49.0489 o
grestore
/DejaVuSans 14.000 selectfont
gsave

41.6938 43.7286 translate
0 rotate
0 0 m /zero glyphshow
grestore
gsave
/o {
gsave
newpath
translate
0.8 setlinewidth
1 setlinejoin

0 setlinecap

-0 0 m
-3.5 0 l

gsave
0 setgray
fill
grestore
stroke
grestore
} bind def
57.6 99.3313 o
grestore
/DejaVuSans 14.000 selectfont
gsave

32.7875 94.011 translate
0 rotate
0 0 m /two glyphshow
8.90723 0 m /zero glyphshow
grestore
gsave
/o {
gsave
newpath
translate
0.8 setlinewidth
1 setlinejoin

0 setlinecap

-0 0 m
-3.5 0 l

gsave
0 setgray
fill
grestore
stroke
grestore
} bind def
57.6 149.614 o
grestore
/DejaVuSans 14.000 selectfont
gsave

32.7875 144.293 translate
0 rotate
0 0 m /four glyphshow
8.90723 0 m /zero glyphshow
grestore
gsave
/o {
gsave
newpath
translate
0.8 setlinewidth
1 setlinejoin

0 setlinecap

-0 0 m
-3.5 0 l

gsave
0 setgray
fill
grestore
stroke
grestore
} bind def
57.6 199.896 o
grestore
/DejaVuSans 14.000 selectfont
gsave

32.7875 194.576 translate
0 rotate
0 0 m /six glyphshow
8.90723 0 m /zero glyphshow
grestore
gsave
/o {
gsave
newpath
translate
0.8 setlinewidth
1 setlinejoin

0 setlinecap

-0 0 m
-3.5 0 l

gsave
0 setgray
fill
grestore
stroke
grestore
} bind def
57.6 250.178 o
grestore
/DejaVuSans 14.000 selectfont
gsave

32.7875 244.858 translate
0 rotate
0 0 m /eight glyphshow
8.90723 0 m /zero glyphshow
grestore
gsave
/o {
gsave
newpath
translate
0.8 setlinewidth
1 setlinejoin

0 setlinecap

-0 0 m
-3.5 0 l

gsave
0 setgray
fill
grestore
stroke
grestore
} bind def
57.6 300.461 o
grestore
/DejaVuSans 14.000 selectfont
gsave

23.8813 295.141 translate
0 rotate
0 0 m /one glyphshow
8.90723 0 m /zero glyphshow
17.8145 0 m /zero glyphshow
grestore
gsave
16.8813 166.572 translate
90 rotate
/DejaVuSans-Oblique 14.0 selectfont
0 0.34375 moveto
/chi glyphshow
grestore
1.5 setlinewidth
2 setlinecap
0.122 0.467 0.706 setrgbcolor
gsave
57.6 38.016 357.12 266.112 rectclip
73.832727 182.304123 m
77.112066 185.679964 l
80.391405 188.875038 l
83.670744 191.885589 l
86.950083 194.712247 l
90.229421 197.361021 l
93.50876 199.844108 l
96.788099 202.180412 l
100.067438 204.395697 l
103.346777 206.522306 l
106.626116 208.59845 l
109.905455 210.667036 l
113.184793 212.774108 l
116.464132 214.966958 l
119.743471 217.292013 l
123.02281 219.792603 l
126.302149 222.506754 l
129.581488 225.465119 l
132.860826 228.689163 l
136.140165 232.189695 l
139.419504 235.965819 l
142.698843 240.004331 l
145.978182 244.279561 l
149.257521 248.753641 l
152.53686 253.377143 l
155.816198 258.090017 l
159.095537 262.822762 l
162.374876 267.497759 l
165.654215 272.030701 l
168.933554 276.332059 l
172.212893 280.308576 l
175.492231 283.864737 l
178.77157 286.904253 l
182.050909 289.331581 l
185.330248 291.053546 l
188.609587 291.981193 l
191.888926 292.032 l
195.168264 291.132632 l
198.447603 289.222408 l
201.726942 286.257588 l
205.006281 282.216455 l
208.28562 277.104927 l
211.564959 270.962121 l
214.844298 263.86488 l
218.123636 255.930003 l
221.402975 247.31279 l
224.682314 238.200873 l
227.961653 228.803095 l
231.240992 219.334402 l
234.520331 209.998907 l
237.799669 200.974022 l
241.079008 192.398476 l
244.358347 184.366072 l
247.637686 176.92562 l
250.917025 170.086082 l
254.196364 163.825099 l
257.475702 158.098834 l
260.755041 152.851407 l
264.03438 148.022763 l
267.313719 143.55448 l
270.593058 139.393476 l
273.872397 135.493914 l
277.151736 131.817751 l
280.431074 128.334363 l
283.710413 125.019655 l
286.989752 121.854959 l
290.269091 118.825919 l
293.54843 115.921485 l
296.827769 113.133073 l
300.107107 110.453894 l
303.386446 107.878449 l
306.665785 105.402152 l
309.945124 103.021056 l
313.224463 100.73167 l
316.503802 98.530815 l
319.78314 96.415539 l
323.062479 94.383049 l
326.341818 92.430671 l
329.621157 90.555818 l
332.900496 88.755972 l
336.179835 87.028671 l
339.459174 85.371504 l
342.738512 83.782103 l
346.017851 82.258145 l
349.29719 80.797348 l
352.576529 79.397475 l
355.855868 78.056332 l
359.135207 76.771772 l
362.414545 75.541696 l
365.693884 74.364053 l
368.973223 73.236843 l
372.252562 72.158119 l
375.531901 71.125986 l
378.81124 70.138603 l
382.090579 69.194182 l
385.369917 68.290991 l
388.649256 67.427354 l
391.928595 66.601646 l
395.207934 65.8123 l
398.487273 65.057801 l
stroke
grestore
1 0.498 0.055 setrgbcolor
gsave
57.6 38.016 357.12 266.112 rectclip
73.832727 114.115127 m
77.112066 117.141242 l
80.391405 120.105612 l
83.670744 123.001326 l
86.950083 125.821563 l
90.229421 128.559384 l
93.50876 131.207671 l
96.788099 133.759199 l
100.067438 136.206908 l
103.346777 138.544327 l
106.626116 140.766173 l
109.905455 142.869063 l
113.184793 144.852286 l
116.464132 146.718598 l
119.743471 148.474938 l
123.02281 150.13302 l
126.302149 151.70973 l
129.581488 153.227277 l
132.860826 154.713066 l
136.140165 156.199264 l
139.419504 157.722064 l
142.698843 159.320654 l
145.978182 161.035911 l
149.257521 162.908865 l
152.53686 164.978964 l
155.816198 167.282192 l
159.095537 169.849091 l
162.374876 172.702735 l
165.654215 175.856709 l
168.933554 179.313148 l
172.212893 183.060891 l
175.492231 187.073795 l
178.77157 191.309273 l
182.050909 195.707122 l
185.330248 200.188739 l
188.609587 204.656846 l
191.888926 208.995938 l
195.168264 213.073725 l
198.447603 216.743959 l
201.726942 219.851097 l
205.006281 222.237256 l
208.28562 223.751779 l
211.564959 224.263336 l
214.844298 223.67382 l
218.123636 221.932403 l
221.402975 219.0472 l
224.682314 215.091479 l
227.961653 210.201719 l
231.240992 204.566292 l
234.520331 198.405928 l
237.799669 191.949513 l
241.079008 185.410209 l
244.358347 178.966645 l
247.637686 172.752122 l
250.917025 166.852343 l
254.196364 161.310086 l
257.475702 156.134082 l
260.755041 151.309367 l
264.03438 146.806987 l
267.313719 142.591838 l
270.593058 138.62824 l
273.872397 134.883363 l
277.151736 131.328932 l
280.431074 127.941714 l
283.710413 124.70325 l
286.989752 121.5992 l
290.269091 118.618548 l
293.54843 115.75284 l
296.827769 112.99551 l
300.107107 110.341354 l
303.386446 107.786112 l
306.665785 105.326173 l
309.945124 102.958362 l
313.224463 100.679795 l
316.503802 98.487776 l
319.78314 96.379737 l
323.062479 94.353192 l
326.341818 92.405709 l
329.621157 90.534897 l
332.900496 88.738397 l
336.179835 87.013874 l
339.459174 85.359018 l
342.738512 83.771545 l
346.017851 82.249199 l
349.29719 80.789754 l
352.576529 79.391016 l
355.855868 78.050829 l
359.135207 76.767077 l
362.414545 75.537683 l
365.693884 74.360618 l
368.973223 73.233899 l
372.252562 72.155593 l
375.531901 71.123816 l
378.81124 70.136736 l
382.090579 69.192575 l
385.369917 68.289607 l
388.649256 67.42616 l
391.928595 66.600615 l
395.207934 65.81141 l
398.487273 65.057031 l
stroke
grestore
0.173 0.627 0.173 setrgbcolor
gsave
57.6 38.016 357.12 266.112 rectclip
73.832727 83.168103 m
77.112066 85.575354 l
80.391405 87.982582 l
83.670744 90.379862 l
86.950083 92.7584 l
90.229421 95.110523 l
93.50876 97.429587 l
96.788099 99.709824 l
100.067438 101.946142 l
103.346777 104.133926 l
106.626116 106.268845 l
109.905455 108.346728 l
113.184793 110.363526 l
116.464132 112.315379 l
119.743471 114.198824 l
123.02281 116.011114 l
126.302149 117.750675 l
129.581488 119.417643 l
132.860826 121.014466 l
136.140165 122.546526 l
139.419504 124.022717 l
142.698843 125.455947 l
145.978182 126.863495 l
149.257521 128.267179 l
152.53686 129.693308 l
155.816198 131.172357 l
159.095537 132.738368 l
162.374876 134.428041 l
165.654215 136.279513 l
168.933554 138.330821 l
172.212893 140.618049 l
175.492231 143.173151 l
178.77157 146.021458 l
182.050909 149.178861 l
185.330248 152.648681 l
188.609587 156.418267 l
191.888926 160.455415 l
195.168264 164.704806 l
198.447603 169.084843 l
201.726942 173.485501 l
205.006281 177.768061 l
208.28562 181.767897 l
211.564959 185.301527 l
214.844298 188.17887 l
218.123636 190.220772 l
221.402975 191.2803 l
224.682314 191.264403 l
227.961653 190.150964 l
231.240992 187.99605 l
234.520331 184.928069 l
237.799669 181.129176 l
241.079008 176.808319 l
244.358347 172.172773 l
247.637686 167.404797 l
250.917025 162.647484 l
254.196364 158.000465 l
257.475702 153.523428 l
260.755041 149.244182 l
264.03438 145.168167 l
267.313719 141.287213 l
270.593058 137.586421 l
273.872397 134.048903 l
277.151736 130.658609 l
280.431074 127.401711 l
283.710413 124.267014 l
286.989752 121.245811 l
290.269091 118.331479 l
293.54843 115.518999 l
296.827769 112.804502 l
300.107107 110.184902 l
303.386446 107.657614 l
306.665785 105.220347 l
309.945124 102.870974 l
313.224463 100.607442 l
316.503802 98.427715 l
319.78314 96.329753 l
323.062479 94.311489 l
326.341818 92.370831 l
329.621157 90.505658 l
332.900496 88.713828 l
336.179835 86.993183 l
339.459174 85.341556 l
342.738512 83.756777 l
346.017851 82.236685 l
349.29719 80.779129 l
352.576529 79.381979 l
355.855868 78.04313 l
359.135207 76.760505 l
362.414545 75.532066 l
365.693884 74.355811 l
368.973223 73.229779 l
372.252562 72.152057 l
375.531901 71.120778 l
378.81124 70.134123 l
382.090579 69.190325 l
385.369917 68.287668 l
388.649256 67.424488 l
391.928595 66.599173 l
395.207934 65.810163 l
398.487273 65.055954 l
stroke
grestore
0.839 0.153 0.157 setrgbcolor
gsave
57.6 38.016 357.12 266.112 rectclip
73.832727 67.401318 m
77.112066 69.195155 l
80.391405 71.036213 l
83.670744 72.914213 l
86.950083 74.819047 l
90.229421 76.741054 l
93.50876 78.671264 l
96.788099 80.601593 l
100.067438 82.524988 l
103.346777 84.435493 l
106.626116 86.328253 l
109.905455 88.199443 l
113.184793 90.046144 l
116.464132 91.866181 l
119.743471 93.657935 l
123.02281 95.420173 l
126.302149 97.151916 l
129.581488 98.852371 l
132.860826 100.520949 l
136.140165 102.157395 l
139.419504 103.762024 l
142.698843 105.336066 l
145.978182 106.882113 l
149.257521 108.404626 l
152.53686 109.910487 l
155.816198 111.409537 l
159.095537 112.915066 l
162.374876 114.444192 l
165.654215 116.01808 l
168.933554 117.661946 l
172.212893 119.404782 l
175.492231 121.278751 l
178.77157 123.318177 l
182.050909 125.558057 l
185.330248 128.032009 l
188.609587 130.769548 l
191.888926 133.792604 l
195.168264 137.11121 l
198.447603 140.718391 l
201.726942 144.584449 l
205.006281 148.651173 l
208.28562 152.826923 l
211.564959 156.984083 l
214.844298 160.960868 l
218.123636 164.569487 l
221.402975 167.611965 l
224.682314 169.903027 l
227.961653 171.29668 l
231.240992 171.710412 l
234.520331 171.139854 l
237.799669 169.658696 l
241.079008 167.403239 l
244.358347 164.546281 l
247.637686 161.268257 l
250.917025 157.733227 l
254.196364 154.074187 l
257.475702 150.388182 l
260.755041 146.738915 l
264.03438 143.163458 l
267.313719 139.680104 l
270.593058 136.295411 l
273.872397 133.009578 l
277.151736 129.820047 l
280.431074 126.723603 l
283.710413 123.717397 l
286.989752 120.799294 l
290.269091 117.967858 l
293.54843 115.222164 l
296.827769 112.561589 l
300.107107 109.985621 l
303.386446 107.493716 l
306.665785 105.08521 l
309.945124 102.759272 l
313.224463 100.514878 l
316.503802 98.350821 l
319.78314 96.26572 l
323.062479 94.258038 l
326.341818 92.326107 l
329.621157 90.468151 l
332.900496 88.682302 l
336.179835 86.966626 l
339.459174 85.319137 l
342.738512 83.737814 l
346.017851 82.220612 l
349.29719 80.765481 l
352.576529 79.370369 l
355.855868 78.033237 l
359.135207 76.752062 l
362.414545 75.524849 l
365.693884 74.349633 l
368.973223 73.224484 l
372.252562 72.147513 l
375.531901 71.116873 l
378.81124 70.130765 l
382.090579 69.187434 l
385.369917 68.285176 l
388.649256 67.422339 l
391.928595 66.597318 l
395.207934 65.808561 l
398.487273 65.054569 l
stroke
grestore
0.58 0.404 0.741 setrgbcolor
gsave
57.6 38.016 357.12 266.112 rectclip
73.832727 59.019397 m
77.112066 60.283604 l
80.391405 61.618155 l
83.670744 63.016501 l
86.950083 64.471432 l
90.229421 65.975312 l
93.50876 67.520343 l
96.788099 69.098825 l
100.067438 70.703421 l
103.346777 72.327391 l
106.626116 73.964797 l
109.905455 75.610647 l
113.184793 77.260984 l
116.464132 78.912889 l
119.743471 80.564423 l
123.02281 82.214482 l
126.302149 83.862609 l
129.581488 85.50875 l
132.860826 87.153015 l
136.140165 88.795442 l
139.419504 90.435826 l
142.698843 92.073627 l
145.978182 93.707989 l
149.257521 95.337902 l
152.53686 96.962499 l
155.816198 98.581505 l
159.095537 100.195812 l
162.374876 101.808152 l
165.654215 103.423827 l
168.933554 105.051434 l
172.212893 106.703529 l
175.492231 108.397144 l
178.77157 110.154073 l
182.050909 112.000836 l
185.330248 113.968195 l
188.609587 116.090097 l
191.888926 118.401883 l
195.168264 120.937563 l
198.447603 123.725988 l
201.726942 126.785758 l
205.006281 130.118872 l
208.28562 133.703422 l
211.564959 137.486152 l
214.844298 141.37644 l
218.123636 145.243994 l
221.402975 148.923023 l
224.682314 152.225087 l
227.961653 154.960876 l
231.240992 156.967821 l
234.520331 158.136967 l
237.799669 158.430941 l
241.079008 157.886914 l
244.358347 156.603698 l
247.637686 154.717955 l
250.917025 152.377742 l
254.196364 149.720822 l
257.475702 146.861666 l
260.755041 143.887159 l
264.03438 140.858561 l
267.313719 137.816663 l
270.593058 134.787647 l
273.872397 131.788193 l
277.151736 128.829277 l
280.431074 125.918655 l
283.710413 123.062314 l
286.989752 120.265211 l
290.269091 117.53159 l
293.54843 114.865079 l
296.827769 112.268702 l
300.107107 109.744868 l
303.386446 107.295375 l
306.665785 104.921439 l
309.945124 102.623733 l
313.224463 100.402445 l
316.503802 98.257338 l
319.78314 96.187813 l
323.062479 94.192963 l
326.341818 92.271628 l
329.621157 90.42244 l
332.900496 88.643865 l
336.179835 86.934236 l
339.459174 85.291787 l
342.738512 83.714672 l
346.017851 82.200994 l
349.29719 80.74882 l
352.576529 79.356194 l
355.855868 78.021156 l
359.135207 76.74175 l
362.414545 75.516033 l
365.693884 74.342086 l
368.973223 73.218015 l
372.252562 72.14196 l
375.531901 71.112103 l
378.81124 70.126661 l
382.090579 69.183901 l
385.369917 68.282132 l
388.649256 67.419713 l
391.928595 66.595051 l
395.207934 65.806603 l
398.487273 65.052877 l
stroke
grestore
0.549 0.337 0.294 setrgbcolor
gsave
57.6 38.016 357.12 266.112 rectclip
73.832727 54.49437 m
77.112066 55.351303 l
80.391405 56.282416 l
83.670744 57.285657 l
86.950083 58.35809 l
90.229421 59.496021 l
93.50876 60.695155 l
96.788099 61.950767 l
100.067438 63.257901 l
103.346777 64.611565 l
106.626116 66.006925 l
109.905455 67.439477 l
113.184793 68.905192 l
116.464132 70.400613 l
119.743471 71.922902 l
123.02281 73.469825 l
126.302149 75.039671 l
129.581488 76.631112 l
132.860826 78.243011 l
136.140165 79.874202 l
139.419504 81.523253 l
142.698843 83.18826 l
145.978182 84.866694 l
149.257521 86.555332 l
152.53686 88.250317 l
155.816198 89.947358 l
159.095537 91.642087 l
162.374876 93.330574 l
165.654215 95.009994 l
168.933554 96.679398 l
172.212893 98.340567 l
175.492231 99.998874 l
178.77157 101.66409 l
182.050909 103.351062 l
185.330248 105.080145 l
188.609587 106.877294 l
191.888926 108.773652 l
195.168264 110.80446 l
198.447603 113.007056 l
201.726942 115.417689 l
205.006281 118.066898 l
208.28562 120.973288 l
211.564959 124.13584 l
214.844298 127.525425 l
218.123636 131.077043 l
221.402975 134.685265 l
224.682314 138.205974 l
227.961653 141.467137 l
231.240992 144.289163 l
234.520331 146.511795 l
237.799669 148.020627 l
241.079008 148.764926 l
244.358347 148.760886 l
247.637686 148.080084 l
250.917025 146.828506 l
254.196364 145.123926 l
257.475702 143.078022 l
260.755041 140.786023 l
264.03438 138.323353 l
267.313719 135.746969 l
270.593058 133.098915 l
273.872397 130.410256 l
277.151736 127.70444 l
280.431074 124.999744 l
283.710413 122.31089 l
286.989752 119.650017 l
290.269091 117.02724 l
293.54843 114.450971 l
296.827769 111.928121 l
300.107107 109.464257 l
303.386446 107.063735 l
306.665785 104.729843 l
309.945124 102.464933 l
313.224463 100.270551 l
316.503802 98.147557 l
319.78314 96.09624 l
323.062479 94.116414 l
326.341818 92.207499 l
329.621157 90.368603 l
332.900496 88.598572 l
336.179835 86.896054 l
339.459174 85.259534 l
342.738512 83.687375 l
346.017851 82.177847 l
349.29719 80.729156 l
352.576529 79.339461 l
355.855868 78.006893 l
359.135207 76.729574 l
362.414545 75.505623 l
365.693884 74.333173 l
368.973223 73.210374 l
372.252562 72.135402 l
375.531901 71.106467 l
378.81124 70.121814 l
382.090579 69.179727 l
385.369917 68.278534 l
388.649256 67.41661 l
391.928595 66.592373 l
395.207934 65.80429 l
398.487273 65.050878 l
stroke
grestore
0.89 0.467 0.761 setrgbcolor
gsave
57.6 38.016 357.12 266.112 rectclip
73.832727 52.04113 m
77.112066 52.610021 l
80.391405 53.247333 l
83.670744 53.954824 l
86.950083 54.73355 l
90.229421 55.583876 l
93.50876 56.505512 l
96.788099 57.497566 l
100.067438 58.558609 l
103.346777 59.686749 l
106.626116 60.879714 l
109.905455 62.134921 l
113.184793 63.449553 l
116.464132 64.820608 l
119.743471 66.244942 l
123.02281 67.719281 l
126.302149 69.240216 l
129.581488 70.804164 l
132.860826 72.40731 l
136.140165 74.045531 l
139.419504 75.714308 l
142.698843 77.408649 l
145.978182 79.123028 l
149.257521 80.851377 l
152.53686 82.587135 l
155.816198 84.323387 l
159.095537 86.053101 l
162.374876 87.769479 l
165.654215 89.46643 l
168.933554 91.139144 l
172.212893 92.78477 l
175.492231 94.403163 l
178.77157 95.997661 l
182.050909 97.57586 l
185.330248 99.150312 l
188.609587 100.739079 l
191.888926 102.366036 l
195.168264 104.060781 l
198.447603 105.857965 l
201.726942 107.795771 l
205.006281 109.913239 l
208.28562 112.246079 l
211.564959 114.82073 l
214.844298 117.64667 l
218.123636 120.707614 l
221.402975 123.953113 l
224.682314 127.293171 l
227.961653 130.599165 l
231.240992 133.713841 l
234.520331 136.470792 l
237.799669 138.719943 l
241.079008 140.351974 l
244.358347 141.313823 l
247.637686 141.610577 l
250.917025 141.294665 l
254.196364 140.447869 l
257.475702 139.162985 l
260.755041 137.529906 l
264.03438 135.627782 l
267.313719 133.522364 l
270.593058 131.266628 l
273.872397 128.902877 l
277.151736 126.465088 l
280.431074 123.980915 l
283.710413 121.47318 l
286.989752 118.960892 l
290.269091 116.459924 l
293.54843 113.983479 l
296.827769 111.542435 l
300.107107 109.145627 l
303.386446 106.800103 l
306.665785 104.511354 l
309.945124 102.283537 l
313.224463 100.11967 l
316.503802 98.021817 l
319.78314 95.991245 l
323.062479 94.028564 l
326.341818 92.133848 l
329.621157 90.30673 l
332.900496 88.54649 l
336.179835 86.852127 l
339.459174 85.222413 l
342.738512 83.655946 l
346.017851 82.15119 l
349.29719 80.706505 l
352.576529 79.320181 l
355.855868 77.990457 l
359.135207 76.71554 l
362.414545 75.493623 l
365.693884 74.322898 l
368.973223 73.201564 l
372.252562 72.12784 l
375.531901 71.099968 l
378.81124 70.116223 l
382.090579 69.174913 l
385.369917 68.274385 l
388.649256 67.413031 l
391.928595 66.589283 l
395.207934 65.801622 l
398.487273 65.048571 l
stroke
grestore
0.498 setgray
gsave
57.6 38.016 357.12 266.112 rectclip
73.832727 50.730819 m
77.112066 51.113914 l
80.391405 51.558212 l
83.670744 52.068429 l
86.950083 52.648898 l
90.229421 53.303479 l
93.50876 54.035466 l
96.788099 54.847505 l
100.067438 55.741519 l
103.346777 56.718637 l
106.626116 57.779128 l
109.905455 58.922351 l
113.184793 60.146712 l
116.464132 61.449637 l
119.743471 62.827557 l
123.02281 64.275918 l
126.302149 65.789213 l
129.581488 67.361031 l
132.860826 68.98414 l
136.140165 70.650579 l
139.419504 72.351789 l
142.698843 74.078747 l
145.978182 75.822133 l
149.257521 77.572498 l
152.53686 79.320465 l
155.816198 81.056936 l
159.095537 82.773329 l
162.374876 84.461842 l
165.654215 86.115757 l
168.933554 87.729785 l
172.212893 89.300469 l
175.492231 90.826635 l
178.77157 92.309913 l
182.050909 93.755291 l
185.330248 95.171707 l
188.609587 96.572636 l
191.888926 97.976606 l
195.168264 99.407567 l
198.447603 100.894965 l
201.726942 102.473302 l
205.006281 104.180925 l
208.28562 106.057649 l
211.564959 108.140843 l
214.844298 110.459652 l
218.123636 113.027366 l
221.402975 115.832583 l
224.682314 118.830831 l
227.961653 121.939388 l
231.240992 125.03862 l
234.520331 127.982319 l
237.799669 130.616797 l
241.079008 132.80463 l
244.358347 134.446009 l
247.637686 135.49091 l
250.917025 135.939087 l
254.196364 135.829913 l
257.475702 135.227367 l
260.755041 134.205609 l
264.03438 132.83839 l
267.313719 131.193054 l
270.593058 129.328218 l
273.872397 127.2937 l
277.151736 125.131481 l
280.431074 122.876924 l
283.710413 120.559877 l
286.989752 118.205553 l
290.269091 115.835192 l
293.54843 113.466585 l
296.827769 111.114493 l
300.107107 108.791018 l
303.386446 106.505937 l
306.665785 104.267016 l
309.945124 102.080291 l
313.224463 99.950338 l
316.503802 97.880502 l
319.78314 95.873102 l
323.062479 93.929614 l
326.341818 92.050817 l
329.621157 90.236926 l
332.900496 88.487695 l
336.179835 86.80251 l
339.459174 85.180464 l
342.738512 83.620416 l
346.017851 82.121042 l
349.29719 80.680881 l
352.576529 79.298366 l
355.855868 77.971855 l
359.135207 76.699654 l
362.414545 75.480037 l
365.693884 74.311263 l
368.973223 73.191587 l
372.252562 72.119275 l
375.531901 71.092607 l
378.81124 70.10989 l
382.090579 69.169459 l
385.369917 68.269685 l
388.649256 67.408977 l
391.928595 66.585783 l
395.207934 65.798598 l
398.487273 65.045958 l
stroke
grestore
0.737 0.741 0.133 setrgbcolor
gsave
57.6 38.016 357.12 266.112 rectclip
73.832727 50.112 m
77.112066 50.402432 l
80.391405 50.751798 l
83.670744 51.167049 l
86.950083 51.654945 l
90.229421 52.22185 l
93.50876 52.873517 l
96.788099 53.614868 l
100.067438 54.449787 l
103.346777 55.380922 l
106.626116 56.40951 l
109.905455 57.535236 l
113.184793 58.756135 l
116.464132 60.068531 l
119.743471 61.467044 l
123.02281 62.944649 l
126.302149 64.4928 l
129.581488 66.101614 l
132.860826 67.760116 l
136.140165 69.456522 l
139.419504 71.17857 l
142.698843 72.913862 l
145.978182 74.650208 l
149.257521 76.375958 l
152.53686 78.080301 l
155.816198 79.753529 l
159.095537 81.387244 l
162.374876 82.974538 l
165.654215 84.51013 l
168.933554 85.990493 l
172.212893 87.413986 l
175.492231 88.78102 l
178.77157 90.094274 l
182.050909 91.358989 l
185.330248 92.583338 l
188.609587 93.778881 l
191.888926 94.961077 l
195.168264 96.149787 l
198.447603 97.369702 l
201.726942 98.650516 l
205.006281 100.026633 l
208.28562 101.536087 l
211.564959 103.218268 l
214.844298 105.11004 l
218.123636 107.239928 l
221.402975 109.620437 l
224.682314 112.239338 l
227.961653 115.051755 l
231.240992 117.975982 l
234.520331 120.896181 l
237.799669 123.673796 l
241.079008 126.166496 l
244.358347 128.249872 l
247.637686 129.835231 l
250.917025 130.878247 l
254.196364 131.377166 l
257.475702 131.363376 l
260.755041 130.889019 l
264.03438 130.015667 l
267.313719 128.806148 l
270.593058 127.319729 l
273.872397 125.60993 l
277.151736 123.723931 l
280.431074 121.702802 l
283.710413 119.582024 l
286.989752 117.392062 l
290.269091 115.158902 l
293.54843 112.90453 l
296.827769 110.647358 l
300.107107 108.402636 l
303.386446 106.182826 l
306.665785 103.997968 l
309.945124 101.856015 l
313.224463 99.763145 l
316.503802 97.724037 l
319.78314 95.742119 l
323.062479 93.819784 l
326.341818 91.958567 l
329.621157 90.159306 l
332.900496 88.422269 l
336.179835 86.747265 l
339.459174 85.133733 l
342.738512 83.580817 l
346.017851 82.08743 l
349.29719 80.652303 l
352.576529 79.274028 l
355.855868 77.951097 l
359.135207 76.681922 l
362.414545 75.46487 l
365.693884 74.298272 l
368.973223 73.180447 l
372.252562 72.10971 l
375.531901 71.084386 l
378.81124 70.102817 l
382.090579 69.163367 l
385.369917 68.264434 l
388.649256 67.404447 l
391.928595 66.581873 l
395.207934 65.79522 l
398.487273 65.043037 l
stroke
grestore
0.09 0.745 0.812 setrgbcolor
gsave
57.6 38.016 357.12 266.112 rectclip
191.888926 292.032 m
211.564959 224.263336 l
221.402975 191.2803 l
231.240992 171.710412 l
237.799669 158.430941 l
241.079008 148.764926 l
247.637686 141.610577 l
250.917025 135.939087 l
254.196364 131.377166 l
stroke
grestore
1 setlinewidth
0 setlinecap
gsave
57.6 38.016 357.12 266.112 rectclip
/o {
gsave
newpath
translate
1.0 setlinewidth
1 setlinejoin

0 setlinecap

0 -3 m
0.795609 -3 1.55874 -2.683901 2.12132 -2.12132 c
2.683901 -1.55874 3 -0.795609 3 0 c
3 0.795609 2.683901 1.55874 2.12132 2.12132 c
1.55874 2.683901 0.795609 3 0 3 c
-0.795609 3 -1.55874 2.683901 -2.12132 2.12132 c
-2.683901 1.55874 -3 0.795609 -3 0 c
-3 -0.795609 -2.683901 -1.55874 -2.12132 -2.12132 c
-1.55874 -2.683901 -0.795609 -3 0 -3 c
cl

gsave
0.09 0.745 0.812 setrgbcolor
fill
grestore
stroke
grestore
} bind def
191.889 292.032 o
211.565 224.263 o
221.403 191.28 o
231.241 171.71 o
237.8 158.431 o
241.079 148.765 o
247.638 141.611 o
250.917 135.939 o
254.196 131.377 o
grestore
0.8 setlinewidth
0 setlinejoin
2 setlinecap
0 setgray
gsave
57.6 38.016 m
57.6 304.128 l
stroke
grestore
gsave
414.72 38.016 m
414.72 304.128 l
stroke
grestore
gsave
57.6 38.016 m
414.72 38.016 l
stroke
grestore
gsave
57.6 304.128 m
414.72 304.128 l
stroke
grestore
1 setlinewidth
0 setlinecap
0.8 setgray
gsave
353.454375 164.081125 m
407.72 164.081125 l
409.053333 164.081125 409.72 164.747792 409.72 166.081125 c
409.72 297.128 l
409.72 298.461333 409.053333 299.128 407.72 299.128 c
353.454375 299.128 l
352.121042 299.128 351.454375 298.461333 351.454375 297.128 c
351.454375 166.081125 l
351.454375 164.747792 352.121042 164.081125 353.454375 164.081125 c
cl
gsave
1 setgray
fill
grestore
stroke
grestore
1.5 setlinewidth
1 setlinejoin
2 setlinecap
0.122 0.467 0.706 setrgbcolor
gsave
355.454375 291.03425 m
365.454375 291.03425 l
375.454375 291.03425 l
stroke
grestore
0 setgray
/DejaVuSans 10.000 selectfont
gsave

383.454 287.534 translate
0 rotate
0 0 m /zero glyphshow
6.3623 0 m /period glyphshow
9.54102 0 m /zero glyphshow
15.9033 0 m /six glyphshow
grestore
1 0.498 0.055 setrgbcolor
gsave
355.454375 276.362375 m
365.454375 276.362375 l
375.454375 276.362375 l
stroke
grestore
0 setgray
/DejaVuSans 10.000 selectfont
gsave

383.454 272.862 translate
0 rotate
0 0 m /zero glyphshow
6.3623 0 m /period glyphshow
9.54102 0 m /zero glyphshow
15.9033 0 m /nine glyphshow
grestore
0.173 0.627 0.173 setrgbcolor
gsave
355.454375 261.6905 m
365.454375 261.6905 l
375.454375 261.6905 l
stroke
grestore
0 setgray
/DejaVuSans 10.000 selectfont
gsave

383.454 258.19 translate
0 rotate
0 0 m /zero glyphshow
6.3623 0 m /period glyphshow
9.54102 0 m /one glyphshow
15.9033 0 m /two glyphshow
grestore
0.839 0.153 0.157 setrgbcolor
gsave
355.454375 247.018625 m
365.454375 247.018625 l
375.454375 247.018625 l
stroke
grestore
0 setgray
/DejaVuSans 10.000 selectfont
gsave

383.454 243.519 translate
0 rotate
0 0 m /zero glyphshow
6.3623 0 m /period glyphshow
9.54102 0 m /one glyphshow
15.9033 0 m /five glyphshow
grestore
0.58 0.404 0.741 setrgbcolor
gsave
355.454375 232.34675 m
365.454375 232.34675 l
375.454375 232.34675 l
stroke
grestore
0 setgray
/DejaVuSans 10.000 selectfont
gsave

383.454 228.847 translate
0 rotate
0 0 m /zero glyphshow
6.3623 0 m /period glyphshow
9.54102 0 m /one glyphshow
15.9033 0 m /eight glyphshow
grestore
0.549 0.337 0.294 setrgbcolor
gsave
355.454375 217.674875 m
365.454375 217.674875 l
375.454375 217.674875 l
stroke
grestore
0 setgray
/DejaVuSans 10.000 selectfont
gsave

383.454 214.175 translate
0 rotate
0 0 m /zero glyphshow
6.3623 0 m /period glyphshow
9.54102 0 m /two glyphshow
15.9033 0 m /one glyphshow
grestore
0.89 0.467 0.761 setrgbcolor
gsave
355.454375 203.003 m
365.454375 203.003 l
375.454375 203.003 l
stroke
grestore
0 setgray
/DejaVuSans 10.000 selectfont
gsave

383.454 199.503 translate
0 rotate
0 0 m /zero glyphshow
6.3623 0 m /period glyphshow
9.54102 0 m /two glyphshow
15.9033 0 m /four glyphshow
grestore
0.498 setgray
gsave
355.454375 188.331125 m
365.454375 188.331125 l
375.454375 188.331125 l
stroke
grestore
0 setgray
/DejaVuSans 10.000 selectfont
gsave

383.454 184.831 translate
0 rotate
0 0 m /zero glyphshow
6.3623 0 m /period glyphshow
9.54102 0 m /two glyphshow
15.9033 0 m /seven glyphshow
grestore
0.737 0.741 0.133 setrgbcolor
gsave
355.454375 173.65925 m
365.454375 173.65925 l
375.454375 173.65925 l
stroke
grestore
0 setgray
/DejaVuSans 10.000 selectfont
gsave

383.454 170.159 translate
0 rotate
0 0 m /zero glyphshow
6.3623 0 m /period glyphshow
9.54102 0 m /three glyphshow
grestore

end
showpage
