%!PS-Adobe-3.0 EPSF-3.0
%%LanguageLevel: 3
%%Title: Cmax(N)_scaling.eps
%%Creator: Matplotlib v3.8.4, https://matplotlib.org/
%%CreationDate: Mon May 13 12:34:10 2024
%%Orientation: portrait
%%BoundingBox: 0 0 461 346
%%HiResBoundingBox: 0.000000 0.000000 460.800000 345.600000
%%EndComments
%%BeginProlog
/mpldict 9 dict def
mpldict begin
/_d { bind def } bind def
/m { moveto } _d
/l { lineto } _d
/r { rlineto } _d
/c { curveto } _d
/cl { closepath } _d
/ce { closepath eofill } _d
/sc { setcachedevice } _d
%!PS-Adobe-3.0 Resource-Font
%%Creator: Converted from TrueType to Type 3 by Matplotlib.
10 dict begin
/FontName /DejaVuSans def
/PaintType 0 def
/FontMatrix [0.00048828125 0 0 0.00048828125 0 0] def
/FontBBox [-2090 -948 3673 2524] def
/FontType 3 def
/Encoding [/a /C /m /N /period /zero /one /two /three /four /five /six /seven /eight /p /x /equal /nine] def
/CharStrings 19 dict dup begin
/.notdef 0 def
/a{1255 0 123 -29 1069 1147 sc
702 563 m
553 563 450 546 393 512 c
336 478 307 420 307 338 c
307 273 328 221 371 182 c
414 144 473 125 547 125 c
649 125 731 161 792 233 c
854 306 885 402 885 522 c
885 563 l
702 563 l

1069 639 m
1069 0 l
885 0 l
885 170 l
843 102 791 52 728 19 c
665 -13 589 -29 498 -29 c
383 -29 292 3 224 67 c
157 132 123 218 123 326 c
123 452 165 547 249 611 c
334 675 460 707 627 707 c
885 707 l
885 725 l
885 810 857 875 801 921 c
746 968 668 991 567 991 c
503 991 441 983 380 968 c
319 953 261 930 205 899 c
205 1069 l
272 1095 338 1114 401 1127 c
464 1140 526 1147 586 1147 c
748 1147 869 1105 949 1021 c
1029 937 1069 810 1069 639 c

ce} _d
/C{1430 0 115 -29 1319 1520 sc
1319 1378 m
1319 1165 l
1251 1228 1178 1276 1101 1307 c
1024 1338 943 1354 856 1354 c
685 1354 555 1302 464 1197 c
373 1093 328 942 328 745 c
328 548 373 398 464 293 c
555 189 685 137 856 137 c
943 137 1024 153 1101 184 c
1178 215 1251 263 1319 326 c
1319 115 l
1248 67 1173 31 1094 7 c
1015 -17 932 -29 844 -29 c
618 -29 440 40 310 178 c
180 317 115 506 115 745 c
115 985 180 1174 310 1312 c
440 1451 618 1520 844 1520 c
933 1520 1017 1508 1096 1484 c
1175 1461 1250 1425 1319 1378 c

ce} _d
/m{1995 0 186 0 1821 1147 sc
1065 905 m
1111 988 1166 1049 1230 1088 c
1294 1127 1369 1147 1456 1147 c
1573 1147 1663 1106 1726 1024 c
1789 943 1821 827 1821 676 c
1821 0 l
1636 0 l
1636 670 l
1636 777 1617 857 1579 909 c
1541 961 1483 987 1405 987 c
1310 987 1234 955 1179 892 c
1124 829 1096 742 1096 633 c
1096 0 l
911 0 l
911 670 l
911 778 892 858 854 909 c
816 961 757 987 678 987 c
584 987 509 955 454 891 c
399 828 371 742 371 633 c
371 0 l
186 0 l
186 1120 l
371 1120 l
371 946 l
413 1015 463 1065 522 1098 c
581 1131 650 1147 731 1147 c
812 1147 881 1126 938 1085 c
995 1044 1038 984 1065 905 c

ce} _d
/N{1532 0 201 0 1331 1493 sc
201 1493 m
473 1493 l
1135 244 l
1135 1493 l
1331 1493 l
1331 0 l
1059 0 l
397 1249 l
397 0 l
201 0 l
201 1493 l

ce} _d
/period{651 0 219 0 430 254 sc
219 254 m
430 254 l
430 0 l
219 0 l
219 254 l

ce} _d
/zero{1303 0 135 -29 1167 1520 sc
651 1360 m
547 1360 469 1309 416 1206 c
364 1104 338 950 338 745 c
338 540 364 387 416 284 c
469 182 547 131 651 131 c
756 131 834 182 886 284 c
939 387 965 540 965 745 c
965 950 939 1104 886 1206 c
834 1309 756 1360 651 1360 c

651 1520 m
818 1520 946 1454 1034 1321 c
1123 1189 1167 997 1167 745 c
1167 494 1123 302 1034 169 c
946 37 818 -29 651 -29 c
484 -29 356 37 267 169 c
179 302 135 494 135 745 c
135 997 179 1189 267 1321 c
356 1454 484 1520 651 1520 c

ce} _d
/one{1303 0 225 0 1114 1493 sc
254 170 m
584 170 l
584 1309 l
225 1237 l
225 1421 l
582 1493 l
784 1493 l
784 170 l
1114 170 l
1114 0 l
254 0 l
254 170 l

ce} _d
/two{1303 0 150 0 1098 1520 sc
393 170 m
1098 170 l
1098 0 l
150 0 l
150 170 l
227 249 331 356 463 489 c
596 623 679 709 713 748 c
778 821 823 882 848 932 c
874 983 887 1032 887 1081 c
887 1160 859 1225 803 1275 c
748 1325 675 1350 586 1350 c
523 1350 456 1339 385 1317 c
315 1295 240 1262 160 1217 c
160 1421 l
241 1454 317 1478 388 1495 c
459 1512 523 1520 582 1520 c
737 1520 860 1481 952 1404 c
1044 1327 1090 1223 1090 1094 c
1090 1033 1078 974 1055 919 c
1032 864 991 800 930 725 c
913 706 860 650 771 557 c
682 465 556 336 393 170 c

ce} _d
/three{1303 0 156 -29 1139 1520 sc
831 805 m
928 784 1003 741 1057 676 c
1112 611 1139 530 1139 434 c
1139 287 1088 173 987 92 c
886 11 742 -29 555 -29 c
492 -29 428 -23 361 -10 c
295 2 227 20 156 45 c
156 240 l
212 207 273 183 340 166 c
407 149 476 141 549 141 c
676 141 772 166 838 216 c
905 266 938 339 938 434 c
938 522 907 591 845 640 c
784 690 698 715 588 715 c
414 715 l
414 881 l
596 881 l
695 881 771 901 824 940 c
877 980 903 1037 903 1112 c
903 1189 876 1247 821 1288 c
767 1329 689 1350 588 1350 c
533 1350 473 1344 410 1332 c
347 1320 277 1301 201 1276 c
201 1456 l
278 1477 349 1493 416 1504 c
483 1515 547 1520 606 1520 c
759 1520 881 1485 970 1415 c
1059 1346 1104 1252 1104 1133 c
1104 1050 1080 980 1033 923 c
986 866 918 827 831 805 c

ce} _d
/four{1303 0 100 0 1188 1493 sc
774 1317 m
264 520 l
774 520 l
774 1317 l

721 1493 m
975 1493 l
975 520 l
1188 520 l
1188 352 l
975 352 l
975 0 l
774 0 l
774 352 l
100 352 l
100 547 l
721 1493 l

ce} _d
/five{1303 0 158 -29 1124 1493 sc
221 1493 m
1014 1493 l
1014 1323 l
406 1323 l
406 957 l
435 967 465 974 494 979 c
523 984 553 987 582 987 c
749 987 881 941 978 850 c
1075 759 1124 635 1124 479 c
1124 318 1074 193 974 104 c
874 15 733 -29 551 -29 c
488 -29 424 -24 359 -13 c
294 -2 227 14 158 35 c
158 238 l
218 205 280 181 344 165 c
408 149 476 141 547 141 c
662 141 754 171 821 232 c
888 293 922 375 922 479 c
922 583 888 665 821 726 c
754 787 662 817 547 817 c
493 817 439 811 385 799 c
332 787 277 768 221 743 c
221 1493 l

ce} _d
/six{1303 0 143 -29 1174 1520 sc
676 827 m
585 827 513 796 460 734 c
407 672 381 587 381 479 c
381 372 407 287 460 224 c
513 162 585 131 676 131 c
767 131 838 162 891 224 c
944 287 971 372 971 479 c
971 587 944 672 891 734 c
838 796 767 827 676 827 c

1077 1460 m
1077 1276 l
1026 1300 975 1318 923 1331 c
872 1344 821 1350 770 1350 c
637 1350 535 1305 464 1215 c
394 1125 354 989 344 807 c
383 865 433 909 492 940 c
551 971 617 987 688 987 c
838 987 956 941 1043 850 c
1130 759 1174 636 1174 479 c
1174 326 1129 203 1038 110 c
947 17 827 -29 676 -29 c
503 -29 371 37 280 169 c
189 302 143 494 143 745 c
143 981 199 1169 311 1309 c
423 1450 573 1520 762 1520 c
813 1520 864 1515 915 1505 c
967 1495 1021 1480 1077 1460 c

ce} _d
/seven{1303 0 168 0 1128 1493 sc
168 1493 m
1128 1493 l
1128 1407 l
586 0 l
375 0 l
885 1323 l
168 1323 l
168 1493 l

ce} _d
/eight{1303 0 139 -29 1163 1520 sc
651 709 m
555 709 479 683 424 632 c
369 581 342 510 342 420 c
342 330 369 259 424 208 c
479 157 555 131 651 131 c
747 131 823 157 878 208 c
933 260 961 331 961 420 c
961 510 933 581 878 632 c
823 683 748 709 651 709 c

449 795 m
362 816 295 857 246 916 c
198 975 174 1048 174 1133 c
174 1252 216 1347 301 1416 c
386 1485 503 1520 651 1520 c
800 1520 916 1485 1001 1416 c
1086 1347 1128 1252 1128 1133 c
1128 1048 1104 975 1055 916 c
1007 857 940 816 854 795 c
951 772 1027 728 1081 662 c
1136 596 1163 515 1163 420 c
1163 275 1119 164 1030 87 c
942 10 816 -29 651 -29 c
486 -29 360 10 271 87 c
183 164 139 275 139 420 c
139 515 166 596 221 662 c
276 728 352 772 449 795 c

375 1114 m
375 1037 399 976 447 933 c
496 890 564 868 651 868 c
738 868 805 890 854 933 c
903 976 928 1037 928 1114 c
928 1191 903 1252 854 1295 c
805 1338 738 1360 651 1360 c
564 1360 496 1338 447 1295 c
399 1252 375 1191 375 1114 c

ce} _d
/p{1300 0 186 -426 1188 1147 sc
371 168 m
371 -426 l
186 -426 l
186 1120 l
371 1120 l
371 950 l
410 1017 458 1066 517 1098 c
576 1131 647 1147 729 1147 c
865 1147 975 1093 1060 985 c
1145 877 1188 735 1188 559 c
1188 383 1145 241 1060 133 c
975 25 865 -29 729 -29 c
647 -29 576 -13 517 19 c
458 52 410 101 371 168 c

997 559 m
997 694 969 800 913 877 c
858 954 781 993 684 993 c
587 993 510 954 454 877 c
399 800 371 694 371 559 c
371 424 399 317 454 240 c
510 163 587 125 684 125 c
781 125 858 163 913 240 c
969 317 997 424 997 559 c

ce} _d
/x{1212 0 59 0 1145 1120 sc
1124 1120 m
719 575 l
1145 0 l
928 0 l
602 440 l
276 0 l
59 0 l
494 586 l
96 1120 l
313 1120 l
610 721 l
907 1120 l
1124 1120 l

ce} _d
/equal{1716 0 217 352 1499 930 sc
217 930 m
1499 930 l
1499 762 l
217 762 l
217 930 l

217 522 m
1499 522 l
1499 352 l
217 352 l
217 522 l

ce} _d
/nine{1303 0 129 -29 1159 1520 sc
225 31 m
225 215 l
276 191 327 173 379 160 c
431 147 482 141 532 141 c
665 141 767 186 837 275 c
908 365 948 501 958 684 c
919 627 870 583 811 552 c
752 521 686 506 614 506 c
465 506 346 551 259 641 c
172 732 129 855 129 1012 c
129 1165 174 1288 265 1381 c
356 1474 476 1520 627 1520 c
800 1520 931 1454 1022 1321 c
1113 1189 1159 997 1159 745 c
1159 510 1103 322 991 181 c
880 41 730 -29 541 -29 c
490 -29 439 -24 387 -14 c
335 -4 281 11 225 31 c

627 664 m
718 664 789 695 842 757 c
895 819 922 904 922 1012 c
922 1119 895 1204 842 1266 c
789 1329 718 1360 627 1360 c
536 1360 464 1329 411 1266 c
358 1204 332 1119 332 1012 c
332 904 358 819 411 757 c
464 695 536 664 627 664 c

ce} _d
end readonly def

/BuildGlyph {
 exch begin
 CharStrings exch
 2 copy known not {pop /.notdef} if
 true 3 1 roll get exec
 end
} _d

/BuildChar {
 1 index /Encoding get exch get
 1 index /BuildGlyph get exec
} _d

FontName currentdict end definefont pop
end
%%EndProlog
mpldict begin
0 0 translate
0 0 460.8 345.6 rectclip
gsave
0 0 m
460.8 0 l
460.8 345.6 l
0 345.6 l
cl
1 setgray
fill
grestore
gsave
57.6 38.016 m
414.72 38.016 l
414.72 304.128 l
57.6 304.128 l
cl
1 setgray
fill
grestore
1 setlinewidth
1 setlinejoin
0 setlinecap
[] 0 setdash
0.122 0.467 0.706 setrgbcolor
gsave
57.6 38.016 357.12 266.112 rectclip
/o {
gsave
newpath
translate
1.0 setlinewidth
1 setlinejoin

0 setlinecap

0 -1.118034 m
0.296506 -1.118034 0.580908 -1.000231 0.790569 -0.790569 c
1.000231 -0.580908 1.118034 -0.296506 1.118034 0 c
1.118034 0.296506 1.000231 0.580908 0.790569 0.790569 c
0.580908 1.000231 0.296506 1.118034 0 1.118034 c
-0.296506 1.118034 -0.580908 1.000231 -0.790569 0.790569 c
-1.000231 0.580908 -1.118034 0.296506 -1.118034 0 c
-1.118034 -0.296506 -1.000231 -0.580908 -0.790569 -0.790569 c
-0.580908 -1.000231 -0.296506 -1.118034 0 -1.118034 c
cl

gsave
0.122 0.467 0.706 setrgbcolor
fill
grestore
stroke
grestore
} bind def
137.604 174.04 o
212.97 188.812 o
299.931 202.262 o
398.487 214.685 o
grestore
1 0.498 0.055 setrgbcolor
gsave
57.6 38.016 357.12 266.112 rectclip
/o {
gsave
newpath
translate
1.0 setlinewidth
1 setlinejoin

0 setlinecap

0 -1.118034 m
0.296506 -1.118034 0.580908 -1.000231 0.790569 -0.790569 c
1.000231 -0.580908 1.118034 -0.296506 1.118034 0 c
1.118034 0.296506 1.000231 0.580908 0.790569 0.790569 c
0.580908 1.000231 0.296506 1.118034 0 1.118034 c
-0.296506 1.118034 -0.580908 1.000231 -0.790569 0.790569 c
-1.000231 0.580908 -1.118034 0.296506 -1.118034 0 c
-1.118034 -0.296506 -1.000231 -0.580908 -0.790569 -0.790569 c
-0.580908 -1.000231 -0.296506 -1.118034 0 -1.118034 c
cl

gsave
1 0.498 0.055 setrgbcolor
fill
grestore
stroke
grestore
} bind def
73.8327 85.6333 o
137.604 98.16 o
212.97 109.184 o
299.931 115.866 o
398.487 111.536 o
grestore
0.173 0.627 0.173 setrgbcolor
gsave
57.6 38.016 357.12 266.112 rectclip
/o {
gsave
newpath
translate
1.0 setlinewidth
1 setlinejoin

0 setlinecap

0 -1.118034 m
0.296506 -1.118034 0.580908 -1.000231 0.790569 -0.790569 c
1.000231 -0.580908 1.118034 -0.296506 1.118034 0 c
1.118034 0.296506 1.000231 0.580908 0.790569 0.790569 c
0.580908 1.000231 0.296506 1.118034 0 1.118034 c
-0.296506 1.118034 -0.580908 1.000231 -0.790569 0.790569 c
-1.000231 0.580908 -1.118034 0.296506 -1.118034 0 c
-1.118034 -0.296506 -1.000231 -0.580908 -0.790569 -0.790569 c
-0.580908 -1.000231 -0.296506 -1.118034 0 -1.118034 c
cl

gsave
0.173 0.627 0.173 setrgbcolor
fill
grestore
stroke
grestore
} bind def
73.8327 86.8865 o
137.604 87.8519 o
212.97 93.5969 o
299.931 81.3807 o
398.487 88.3283 o
grestore
0.839 0.153 0.157 setrgbcolor
gsave
57.6 38.016 357.12 266.112 rectclip
/o {
gsave
newpath
translate
1.0 setlinewidth
1 setlinejoin

0 setlinecap

0 -1.118034 m
0.296506 -1.118034 0.580908 -1.000231 0.790569 -0.790569 c
1.000231 -0.580908 1.118034 -0.296506 1.118034 0 c
1.118034 0.296506 1.000231 0.580908 0.790569 0.790569 c
0.580908 1.000231 0.296506 1.118034 0 1.118034 c
-0.296506 1.118034 -0.580908 1.000231 -0.790569 0.790569 c
-1.000231 0.580908 -1.118034 0.296506 -1.118034 0 c
-1.118034 -0.296506 -1.000231 -0.580908 -0.790569 -0.790569 c
-0.580908 -1.000231 -0.296506 -1.118034 0 -1.118034 c
cl

gsave
0.839 0.153 0.157 setrgbcolor
fill
grestore
stroke
grestore
} bind def
73.8327 69.2248 o
137.604 86.9705 o
212.97 101.601 o
299.931 80.5689 o
398.487 90.8483 o
grestore
0.58 0.404 0.741 setrgbcolor
gsave
57.6 38.016 357.12 266.112 rectclip
/o {
gsave
newpath
translate
1.0 setlinewidth
1 setlinejoin

0 setlinecap

0 -1.118034 m
0.296506 -1.118034 0.580908 -1.000231 0.790569 -0.790569 c
1.000231 -0.580908 1.118034 -0.296506 1.118034 0 c
1.118034 0.296506 1.000231 0.580908 0.790569 0.790569 c
0.580908 1.000231 0.296506 1.118034 0 1.118034 c
-0.296506 1.118034 -0.580908 1.000231 -0.790569 0.790569 c
-1.000231 0.580908 -1.118034 0.296506 -1.118034 0 c
-1.118034 -0.296506 -1.000231 -0.580908 -0.790569 -0.790569 c
-0.580908 -1.000231 -0.296506 -1.118034 0 -1.118034 c
cl

gsave
0.58 0.404 0.741 setrgbcolor
fill
grestore
stroke
grestore
} bind def
73.8327 68.1183 o
137.604 63.5718 o
212.97 68.4626 o
299.931 71.0178 o
398.487 69.4606 o
grestore
0.549 0.337 0.294 setrgbcolor
gsave
57.6 38.016 357.12 266.112 rectclip
/o {
gsave
newpath
translate
1.0 setlinewidth
1 setlinejoin

0 setlinecap

0 -1.118034 m
0.296506 -1.118034 0.580908 -1.000231 0.790569 -0.790569 c
1.000231 -0.580908 1.118034 -0.296506 1.118034 0 c
1.118034 0.296506 1.000231 0.580908 0.790569 0.790569 c
0.580908 1.000231 0.296506 1.118034 0 1.118034 c
-0.296506 1.118034 -0.580908 1.000231 -0.790569 0.790569 c
-1.000231 0.580908 -1.118034 0.296506 -1.118034 0 c
-1.118034 -0.296506 -1.000231 -0.580908 -0.790569 -0.790569 c
-0.580908 -1.000231 -0.296506 -1.118034 0 -1.118034 c
cl

gsave
0.549 0.337 0.294 setrgbcolor
fill
grestore
stroke
grestore
} bind def
73.8327 66.8957 o
137.604 84.3858 o
212.97 78.0543 o
299.931 66.6524 o
398.487 82.4902 o
grestore
0.8 setlinewidth
0 setgray
gsave
/o {
gsave
newpath
translate
0.8 setlinewidth
1 setlinejoin

0 setlinecap

0 0 m
0 -3.5 l

gsave
0 setgray
fill
grestore
stroke
grestore
} bind def
102.82 38.016 o
grestore
/DejaVuSans 14.000 selectfont
gsave

93.9135 20.3754 translate
0 rotate
0 0 m /three glyphshow
8.90723 0 m /zero glyphshow
grestore
gsave
/o {
gsave
newpath
translate
0.8 setlinewidth
1 setlinejoin

0 setlinecap

0 0 m
0 -3.5 l

gsave
0 setgray
fill
grestore
stroke
grestore
} bind def
160.794 38.016 o
grestore
/DejaVuSans 14.000 selectfont
gsave

151.888 20.3754 translate
0 rotate
0 0 m /four glyphshow
8.90723 0 m /zero glyphshow
grestore
gsave
/o {
gsave
newpath
translate
0.8 setlinewidth
1 setlinejoin

0 setlinecap

0 0 m
0 -3.5 l

gsave
0 setgray
fill
grestore
stroke
grestore
} bind def
218.768 38.016 o
grestore
/DejaVuSans 14.000 selectfont
gsave

209.862 20.3754 translate
0 rotate
0 0 m /five glyphshow
8.90723 0 m /zero glyphshow
grestore
gsave
/o {
gsave
newpath
translate
0.8 setlinewidth
1 setlinejoin

0 setlinecap

0 0 m
0 -3.5 l

gsave
0 setgray
fill
grestore
stroke
grestore
} bind def
276.742 38.016 o
grestore
/DejaVuSans 14.000 selectfont
gsave

267.836 20.3754 translate
0 rotate
0 0 m /six glyphshow
8.90723 0 m /zero glyphshow
grestore
gsave
/o {
gsave
newpath
translate
0.8 setlinewidth
1 setlinejoin

0 setlinecap

0 0 m
0 -3.5 l

gsave
0 setgray
fill
grestore
stroke
grestore
} bind def
334.716 38.016 o
grestore
/DejaVuSans 14.000 selectfont
gsave

325.81 20.3754 translate
0 rotate
0 0 m /seven glyphshow
8.90723 0 m /zero glyphshow
grestore
gsave
/o {
gsave
newpath
translate
0.8 setlinewidth
1 setlinejoin

0 setlinecap

0 0 m
0 -3.5 l

gsave
0 setgray
fill
grestore
stroke
grestore
} bind def
392.69 38.016 o
grestore
/DejaVuSans 14.000 selectfont
gsave

383.784 20.3754 translate
0 rotate
0 0 m /eight glyphshow
8.90723 0 m /zero glyphshow
grestore
/DejaVuSans 14.000 selectfont
gsave

230.926 2.8285 translate
0 rotate
0 0 m /N glyphshow
grestore
gsave
/o {
gsave
newpath
translate
0.8 setlinewidth
1 setlinejoin

0 setlinecap

-0 0 m
-3.5 0 l

gsave
0 setgray
fill
grestore
stroke
grestore
} bind def
57.6 61.1562 o
grestore
/DejaVuSans 14.000 selectfont
gsave

28.3344 55.8359 translate
0 rotate
0 0 m /zero glyphshow
8.90723 0 m /period glyphshow
13.3574 0 m /five glyphshow
grestore
gsave
/o {
gsave
newpath
translate
0.8 setlinewidth
1 setlinejoin

0 setlinecap

-0 0 m
-3.5 0 l

gsave
0 setgray
fill
grestore
stroke
grestore
} bind def
57.6 119.007 o
grestore
/DejaVuSans 14.000 selectfont
gsave

28.3344 113.686 translate
0 rotate
0 0 m /one glyphshow
8.90723 0 m /period glyphshow
13.3574 0 m /zero glyphshow
grestore
gsave
/o {
gsave
newpath
translate
0.8 setlinewidth
1 setlinejoin

0 setlinecap

-0 0 m
-3.5 0 l

gsave
0 setgray
fill
grestore
stroke
grestore
} bind def
57.6 176.857 o
grestore
/DejaVuSans 14.000 selectfont
gsave

28.3344 171.537 translate
0 rotate
0 0 m /one glyphshow
8.90723 0 m /period glyphshow
13.3574 0 m /five glyphshow
grestore
gsave
/o {
gsave
newpath
translate
0.8 setlinewidth
1 setlinejoin

0 setlinecap

-0 0 m
-3.5 0 l

gsave
0 setgray
fill
grestore
stroke
grestore
} bind def
57.6 234.707 o
grestore
/DejaVuSans 14.000 selectfont
gsave

28.3344 229.387 translate
0 rotate
0 0 m /two glyphshow
8.90723 0 m /period glyphshow
13.3574 0 m /zero glyphshow
grestore
gsave
/o {
gsave
newpath
translate
0.8 setlinewidth
1 setlinejoin

0 setlinecap

-0 0 m
-3.5 0 l

gsave
0 setgray
fill
grestore
stroke
grestore
} bind def
57.6 292.558 o
grestore
/DejaVuSans 14.000 selectfont
gsave

28.3344 287.238 translate
0 rotate
0 0 m /two glyphshow
8.90723 0 m /period glyphshow
13.3574 0 m /five glyphshow
grestore
/DejaVuSans 14.000 selectfont
gsave

21.4281 150.931 translate
90 rotate
0 0 m /C glyphshow
9.77539 0 m /m glyphshow
23.4131 0 m /a glyphshow
31.9922 0 m /x glyphshow
grestore
1.5 setlinewidth
2 setlinecap
0.122 0.467 0.706 setrgbcolor
gsave
57.6 38.016 357.12 266.112 rectclip
73.832727 165.787976 m
79.63013 166.685264 l
85.427532 167.582551 l
91.224935 168.479839 l
97.022338 169.377127 l
102.81974 170.274414 l
108.617143 171.171702 l
114.414545 172.068989 l
120.211948 172.966277 l
126.009351 173.863565 l
131.806753 174.760852 l
137.604156 175.65814 l
143.401558 176.555427 l
149.198961 177.452715 l
154.996364 178.350003 l
160.793766 179.24729 l
166.591169 180.144578 l
172.388571 181.041865 l
178.185974 181.939153 l
183.983377 182.836441 l
189.780779 183.733728 l
195.578182 184.631016 l
201.375584 185.528303 l
207.172987 186.425591 l
212.97039 187.322879 l
218.767792 188.220166 l
224.565195 189.117454 l
230.362597 190.014742 l
236.16 190.912029 l
241.957403 191.809317 l
247.754805 192.706604 l
253.552208 193.603892 l
259.34961 194.50118 l
265.147013 195.398467 l
270.944416 196.295755 l
276.741818 197.193042 l
282.539221 198.09033 l
288.336623 198.987618 l
294.134026 199.884905 l
299.931429 200.782193 l
305.728831 201.67948 l
311.526234 202.576768 l
317.323636 203.474056 l
323.121039 204.371343 l
328.918442 205.268631 l
334.715844 206.165918 l
340.513247 207.063206 l
346.310649 207.960494 l
352.108052 208.857781 l
357.905455 209.755069 l
363.702857 210.652356 l
369.50026 211.549644 l
375.297662 212.446932 l
381.095065 213.344219 l
386.892468 214.241507 l
392.68987 215.138794 l
398.487273 216.036082 l
stroke
grestore
1 0.498 0.055 setrgbcolor
gsave
57.6 38.016 357.12 266.112 rectclip
73.832727 91.759399 m
79.63013 92.233108 l
85.427532 92.706817 l
91.224935 93.180527 l
97.022338 93.654236 l
102.81974 94.127945 l
108.617143 94.601654 l
114.414545 95.075364 l
120.211948 95.549073 l
126.009351 96.022782 l
131.806753 96.496491 l
137.604156 96.970201 l
143.401558 97.44391 l
149.198961 97.917619 l
154.996364 98.391328 l
160.793766 98.865038 l
166.591169 99.338747 l
172.388571 99.812456 l
178.185974 100.286166 l
183.983377 100.759875 l
189.780779 101.233584 l
195.578182 101.707293 l
201.375584 102.181003 l
207.172987 102.654712 l
212.97039 103.128421 l
218.767792 103.60213 l
224.565195 104.07584 l
230.362597 104.549549 l
236.16 105.023258 l
241.957403 105.496967 l
247.754805 105.970677 l
253.552208 106.444386 l
259.34961 106.918095 l
265.147013 107.391804 l
270.944416 107.865514 l
276.741818 108.339223 l
282.539221 108.812932 l
288.336623 109.286642 l
294.134026 109.760351 l
299.931429 110.23406 l
305.728831 110.707769 l
311.526234 111.181479 l
317.323636 111.655188 l
323.121039 112.128897 l
328.918442 112.602606 l
334.715844 113.076316 l
340.513247 113.550025 l
346.310649 114.023734 l
352.108052 114.497443 l
357.905455 114.971153 l
363.702857 115.444862 l
369.50026 115.918571 l
375.297662 116.392281 l
381.095065 116.86599 l
386.892468 117.339699 l
392.68987 117.813408 l
398.487273 118.287118 l
stroke
grestore
0.173 0.627 0.173 setrgbcolor
gsave
57.6 38.016 357.12 266.112 rectclip
73.832727 88.349432 m
79.63013 88.320949 l
85.427532 88.292465 l
91.224935 88.263982 l
97.022338 88.235499 l
102.81974 88.207015 l
108.617143 88.178532 l
114.414545 88.150049 l
120.211948 88.121566 l
126.009351 88.093082 l
131.806753 88.064599 l
137.604156 88.036116 l
143.401558 88.007632 l
149.198961 87.979149 l
154.996364 87.950666 l
160.793766 87.922182 l
166.591169 87.893699 l
172.388571 87.865216 l
178.185974 87.836733 l
183.983377 87.808249 l
189.780779 87.779766 l
195.578182 87.751283 l
201.375584 87.722799 l
207.172987 87.694316 l
212.97039 87.665833 l
218.767792 87.63735 l
224.565195 87.608866 l
230.362597 87.580383 l
236.16 87.5519 l
241.957403 87.523416 l
247.754805 87.494933 l
253.552208 87.46645 l
259.34961 87.437966 l
265.147013 87.409483 l
270.944416 87.381 l
276.741818 87.352517 l
282.539221 87.324033 l
288.336623 87.29555 l
294.134026 87.267067 l
299.931429 87.238583 l
305.728831 87.2101 l
311.526234 87.181617 l
317.323636 87.153134 l
323.121039 87.12465 l
328.918442 87.096167 l
334.715844 87.067684 l
340.513247 87.0392 l
346.310649 87.010717 l
352.108052 86.982234 l
357.905455 86.95375 l
363.702857 86.925267 l
369.50026 86.896784 l
375.297662 86.868301 l
381.095065 86.839817 l
386.892468 86.811334 l
392.68987 86.782851 l
398.487273 86.754367 l
stroke
grestore
0.839 0.153 0.157 setrgbcolor
gsave
57.6 38.016 357.12 266.112 rectclip
73.832727 79.71488 m
79.63013 79.950565 l
85.427532 80.18625 l
91.224935 80.421935 l
97.022338 80.65762 l
102.81974 80.893305 l
108.617143 81.12899 l
114.414545 81.364675 l
120.211948 81.60036 l
126.009351 81.836045 l
131.806753 82.07173 l
137.604156 82.307415 l
143.401558 82.5431 l
149.198961 82.778785 l
154.996364 83.01447 l
160.793766 83.250155 l
166.591169 83.48584 l
172.388571 83.721525 l
178.185974 83.95721 l
183.983377 84.192895 l
189.780779 84.42858 l
195.578182 84.664265 l
201.375584 84.89995 l
207.172987 85.135635 l
212.97039 85.37132 l
218.767792 85.607005 l
224.565195 85.84269 l
230.362597 86.078375 l
236.16 86.31406 l
241.957403 86.549745 l
247.754805 86.78543 l
253.552208 87.021115 l
259.34961 87.2568 l
265.147013 87.492485 l
270.944416 87.72817 l
276.741818 87.963855 l
282.539221 88.19954 l
288.336623 88.435225 l
294.134026 88.67091 l
299.931429 88.906595 l
305.728831 89.14228 l
311.526234 89.377965 l
317.323636 89.61365 l
323.121039 89.849335 l
328.918442 90.08502 l
334.715844 90.320705 l
340.513247 90.55639 l
346.310649 90.792075 l
352.108052 91.02776 l
357.905455 91.263445 l
363.702857 91.49913 l
369.50026 91.734815 l
375.297662 91.9705 l
381.095065 92.206185 l
386.892468 92.44187 l
392.68987 92.677555 l
398.487273 92.91324 l
stroke
grestore
0.58 0.404 0.741 setrgbcolor
gsave
57.6 38.016 357.12 266.112 rectclip
73.832727 66.210159 m
79.63013 66.283853 l
85.427532 66.357547 l
91.224935 66.431242 l
97.022338 66.504936 l
102.81974 66.57863 l
108.617143 66.652324 l
114.414545 66.726018 l
120.211948 66.799712 l
126.009351 66.873407 l
131.806753 66.947101 l
137.604156 67.020795 l
143.401558 67.094489 l
149.198961 67.168183 l
154.996364 67.241878 l
160.793766 67.315572 l
166.591169 67.389266 l
172.388571 67.46296 l
178.185974 67.536654 l
183.983377 67.610348 l
189.780779 67.684043 l
195.578182 67.757737 l
201.375584 67.831431 l
207.172987 67.905125 l
212.97039 67.978819 l
218.767792 68.052513 l
224.565195 68.126208 l
230.362597 68.199902 l
236.16 68.273596 l
241.957403 68.34729 l
247.754805 68.420984 l
253.552208 68.494678 l
259.34961 68.568373 l
265.147013 68.642067 l
270.944416 68.715761 l
276.741818 68.789455 l
282.539221 68.863149 l
288.336623 68.936844 l
294.134026 69.010538 l
299.931429 69.084232 l
305.728831 69.157926 l
311.526234 69.23162 l
317.323636 69.305314 l
323.121039 69.379009 l
328.918442 69.452703 l
334.715844 69.526397 l
340.513247 69.600091 l
346.310649 69.673785 l
352.108052 69.747479 l
357.905455 69.821174 l
363.702857 69.894868 l
369.50026 69.968562 l
375.297662 70.042256 l
381.095065 70.11595 l
386.892468 70.189644 l
392.68987 70.263339 l
398.487273 70.337033 l
stroke
grestore
0.549 0.337 0.294 setrgbcolor
gsave
57.6 38.016 357.12 266.112 rectclip
73.832727 73.324812 m
79.63013 73.415999 l
85.427532 73.507187 l
91.224935 73.598374 l
97.022338 73.689561 l
102.81974 73.780748 l
108.617143 73.871936 l
114.414545 73.963123 l
120.211948 74.05431 l
126.009351 74.145498 l
131.806753 74.236685 l
137.604156 74.327872 l
143.401558 74.419059 l
149.198961 74.510247 l
154.996364 74.601434 l
160.793766 74.692621 l
166.591169 74.783808 l
172.388571 74.874996 l
178.185974 74.966183 l
183.983377 75.05737 l
189.780779 75.148557 l
195.578182 75.239745 l
201.375584 75.330932 l
207.172987 75.422119 l
212.97039 75.513306 l
218.767792 75.604494 l
224.565195 75.695681 l
230.362597 75.786868 l
236.16 75.878055 l
241.957403 75.969243 l
247.754805 76.06043 l
253.552208 76.151617 l
259.34961 76.242805 l
265.147013 76.333992 l
270.944416 76.425179 l
276.741818 76.516366 l
282.539221 76.607554 l
288.336623 76.698741 l
294.134026 76.789928 l
299.931429 76.881115 l
305.728831 76.972303 l
311.526234 77.06349 l
317.323636 77.154677 l
323.121039 77.245864 l
328.918442 77.337052 l
334.715844 77.428239 l
340.513247 77.519426 l
346.310649 77.610613 l
352.108052 77.701801 l
357.905455 77.792988 l
363.702857 77.884175 l
369.50026 77.975362 l
375.297662 78.06655 l
381.095065 78.157737 l
386.892468 78.248924 l
392.68987 78.340112 l
398.487273 78.431299 l
stroke
grestore
0.8 setlinewidth
0 setlinejoin
0 setgray
gsave
57.6 38.016 m
57.6 304.128 l
stroke
grestore
gsave
414.72 38.016 m
414.72 304.128 l
stroke
grestore
gsave
57.6 38.016 m
414.72 38.016 l
stroke
grestore
gsave
57.6 304.128 m
414.72 304.128 l
stroke
grestore
1 setlinewidth
0 setlinecap
0.8 setgray
gsave
64.6 208.09675 m
127.225 208.09675 l
128.558333 208.09675 129.225 208.763417 129.225 210.09675 c
129.225 297.128 l
129.225 298.461333 128.558333 299.128 127.225 299.128 c
64.6 299.128 l
63.266667 299.128 62.6 298.461333 62.6 297.128 c
62.6 210.09675 l
62.6 208.763417 63.266667 208.09675 64.6 208.09675 c
cl
gsave
1 setgray
fill
grestore
stroke
grestore
1.5 setlinewidth
1 setlinejoin
2 setlinecap
0.122 0.467 0.706 setrgbcolor
gsave
66.6 291.03425 m
76.6 291.03425 l
86.6 291.03425 l
stroke
grestore
0 setgray
/DejaVuSans 10.000 selectfont
gsave

94.6 287.534 translate
0 rotate
0 0 m /p glyphshow
6.34766 0 m /equal glyphshow
14.7266 0 m /one glyphshow
21.0889 0 m /period glyphshow
24.2676 0 m /zero glyphshow
grestore
1 0.498 0.055 setrgbcolor
gsave
66.6 276.362375 m
76.6 276.362375 l
86.6 276.362375 l
stroke
grestore
0 setgray
/DejaVuSans 10.000 selectfont
gsave

94.6 272.862 translate
0 rotate
0 0 m /p glyphshow
6.34766 0 m /equal glyphshow
14.7266 0 m /zero glyphshow
21.0889 0 m /period glyphshow
24.2676 0 m /nine glyphshow
grestore
0.173 0.627 0.173 setrgbcolor
gsave
66.6 261.6905 m
76.6 261.6905 l
86.6 261.6905 l
stroke
grestore
0 setgray
/DejaVuSans 10.000 selectfont
gsave

94.6 258.19 translate
0 rotate
0 0 m /p glyphshow
6.34766 0 m /equal glyphshow
14.7266 0 m /zero glyphshow
21.0889 0 m /period glyphshow
24.2676 0 m /eight glyphshow
grestore
0.839 0.153 0.157 setrgbcolor
gsave
66.6 247.018625 m
76.6 247.018625 l
86.6 247.018625 l
stroke
grestore
0 setgray
/DejaVuSans 10.000 selectfont
gsave

94.6 243.519 translate
0 rotate
0 0 m /p glyphshow
6.34766 0 m /equal glyphshow
14.7266 0 m /zero glyphshow
21.0889 0 m /period glyphshow
24.2676 0 m /seven glyphshow
grestore
0.58 0.404 0.741 setrgbcolor
gsave
66.6 232.34675 m
76.6 232.34675 l
86.6 232.34675 l
stroke
grestore
0 setgray
/DejaVuSans 10.000 selectfont
gsave

94.6 228.847 translate
0 rotate
0 0 m /p glyphshow
6.34766 0 m /equal glyphshow
14.7266 0 m /zero glyphshow
21.0889 0 m /period glyphshow
24.2676 0 m /six glyphshow
grestore
0.549 0.337 0.294 setrgbcolor
gsave
66.6 217.674875 m
76.6 217.674875 l
86.6 217.674875 l
stroke
grestore
0 setgray
/DejaVuSans 10.000 selectfont
gsave

94.6 214.175 translate
0 rotate
0 0 m /p glyphshow
6.34766 0 m /equal glyphshow
14.7266 0 m /zero glyphshow
21.0889 0 m /period glyphshow
24.2676 0 m /five glyphshow
grestore

end
showpage
