%!PS-Adobe-3.0 EPSF-3.0
%%Title: Tmax(H)_N=81_p=0.1528.eps
%%Creator: Matplotlib v3.7.2, https://matplotlib.org/
%%CreationDate: Mon Sep 18 08:08:05 2023
%%Orientation: portrait
%%BoundingBox: 95 234 517 558
%%HiResBoundingBox: 95.786875 234.408062 516.213125 557.591937
%%EndComments
%%BeginProlog
/mpldict 12 dict def
mpldict begin
/_d { bind def } bind def
/m { moveto } _d
/l { lineto } _d
/r { rlineto } _d
/c { curveto } _d
/cl { closepath } _d
/ce { closepath eofill } _d
/box {
      m
      1 index 0 r
      0 exch r
      neg 0 r
      cl
    } _d
/clipbox {
      box
      clip
      newpath
    } _d
/sc { setcachedevice } _d
%!PS-Adobe-3.0 Resource-Font
%%Creator: Converted from TrueType to Type 3 by Matplotlib.
10 dict begin
/FontName /DejaVuSans def
/PaintType 0 def
/FontMatrix [0.00048828125 0 0 0.00048828125 0 0] def
/FontBBox [-2090 -948 3673 2524] def
/FontType 3 def
/Encoding [/space /dotmath /comma /period /slash /zero /one /two /three /four /five /six /N /eight /p /equal] def
/CharStrings 17 dict dup begin
/.notdef 0 def
/space{651 0 0 0 0 0 sc
ce} _d
/dotmath{651 0 219 584 430 838 sc
219 838 m
430 838 l
430 584 l
219 584 l
219 838 l

ce} _d
/comma{651 0 158 -238 451 254 sc
240 254 m
451 254 l
451 82 l
287 -238 l
158 -238 l
240 82 l
240 254 l

ce} _d
/period{651 0 219 0 430 254 sc
219 254 m
430 254 l
430 0 l
219 0 l
219 254 l

ce} _d
/slash{690 0 0 -190 690 1493 sc
520 1493 m
690 1493 l
170 -190 l
0 -190 l
520 1493 l

ce} _d
/zero{1303 0 135 -29 1167 1520 sc
651 1360 m
547 1360 469 1309 416 1206 c
364 1104 338 950 338 745 c
338 540 364 387 416 284 c
469 182 547 131 651 131 c
756 131 834 182 886 284 c
939 387 965 540 965 745 c
965 950 939 1104 886 1206 c
834 1309 756 1360 651 1360 c

651 1520 m
818 1520 946 1454 1034 1321 c
1123 1189 1167 997 1167 745 c
1167 494 1123 302 1034 169 c
946 37 818 -29 651 -29 c
484 -29 356 37 267 169 c
179 302 135 494 135 745 c
135 997 179 1189 267 1321 c
356 1454 484 1520 651 1520 c

ce} _d
/one{1303 0 225 0 1114 1493 sc
254 170 m
584 170 l
584 1309 l
225 1237 l
225 1421 l
582 1493 l
784 1493 l
784 170 l
1114 170 l
1114 0 l
254 0 l
254 170 l

ce} _d
/two{1303 0 150 0 1098 1520 sc
393 170 m
1098 170 l
1098 0 l
150 0 l
150 170 l
227 249 331 356 463 489 c
596 623 679 709 713 748 c
778 821 823 882 848 932 c
874 983 887 1032 887 1081 c
887 1160 859 1225 803 1275 c
748 1325 675 1350 586 1350 c
523 1350 456 1339 385 1317 c
315 1295 240 1262 160 1217 c
160 1421 l
241 1454 317 1478 388 1495 c
459 1512 523 1520 582 1520 c
737 1520 860 1481 952 1404 c
1044 1327 1090 1223 1090 1094 c
1090 1033 1078 974 1055 919 c
1032 864 991 800 930 725 c
913 706 860 650 771 557 c
682 465 556 336 393 170 c

ce} _d
/three{1303 0 156 -29 1139 1520 sc
831 805 m
928 784 1003 741 1057 676 c
1112 611 1139 530 1139 434 c
1139 287 1088 173 987 92 c
886 11 742 -29 555 -29 c
492 -29 428 -23 361 -10 c
295 2 227 20 156 45 c
156 240 l
212 207 273 183 340 166 c
407 149 476 141 549 141 c
676 141 772 166 838 216 c
905 266 938 339 938 434 c
938 522 907 591 845 640 c
784 690 698 715 588 715 c
414 715 l
414 881 l
596 881 l
695 881 771 901 824 940 c
877 980 903 1037 903 1112 c
903 1189 876 1247 821 1288 c
767 1329 689 1350 588 1350 c
533 1350 473 1344 410 1332 c
347 1320 277 1301 201 1276 c
201 1456 l
278 1477 349 1493 416 1504 c
483 1515 547 1520 606 1520 c
759 1520 881 1485 970 1415 c
1059 1346 1104 1252 1104 1133 c
1104 1050 1080 980 1033 923 c
986 866 918 827 831 805 c

ce} _d
/four{1303 0 100 0 1188 1493 sc
774 1317 m
264 520 l
774 520 l
774 1317 l

721 1493 m
975 1493 l
975 520 l
1188 520 l
1188 352 l
975 352 l
975 0 l
774 0 l
774 352 l
100 352 l
100 547 l
721 1493 l

ce} _d
/five{1303 0 158 -29 1124 1493 sc
221 1493 m
1014 1493 l
1014 1323 l
406 1323 l
406 957 l
435 967 465 974 494 979 c
523 984 553 987 582 987 c
749 987 881 941 978 850 c
1075 759 1124 635 1124 479 c
1124 318 1074 193 974 104 c
874 15 733 -29 551 -29 c
488 -29 424 -24 359 -13 c
294 -2 227 14 158 35 c
158 238 l
218 205 280 181 344 165 c
408 149 476 141 547 141 c
662 141 754 171 821 232 c
888 293 922 375 922 479 c
922 583 888 665 821 726 c
754 787 662 817 547 817 c
493 817 439 811 385 799 c
332 787 277 768 221 743 c
221 1493 l

ce} _d
/six{1303 0 143 -29 1174 1520 sc
676 827 m
585 827 513 796 460 734 c
407 672 381 587 381 479 c
381 372 407 287 460 224 c
513 162 585 131 676 131 c
767 131 838 162 891 224 c
944 287 971 372 971 479 c
971 587 944 672 891 734 c
838 796 767 827 676 827 c

1077 1460 m
1077 1276 l
1026 1300 975 1318 923 1331 c
872 1344 821 1350 770 1350 c
637 1350 535 1305 464 1215 c
394 1125 354 989 344 807 c
383 865 433 909 492 940 c
551 971 617 987 688 987 c
838 987 956 941 1043 850 c
1130 759 1174 636 1174 479 c
1174 326 1129 203 1038 110 c
947 17 827 -29 676 -29 c
503 -29 371 37 280 169 c
189 302 143 494 143 745 c
143 981 199 1169 311 1309 c
423 1450 573 1520 762 1520 c
813 1520 864 1515 915 1505 c
967 1495 1021 1480 1077 1460 c

ce} _d
/N{1532 0 201 0 1331 1493 sc
201 1493 m
473 1493 l
1135 244 l
1135 1493 l
1331 1493 l
1331 0 l
1059 0 l
397 1249 l
397 0 l
201 0 l
201 1493 l

ce} _d
/eight{1303 0 139 -29 1163 1520 sc
651 709 m
555 709 479 683 424 632 c
369 581 342 510 342 420 c
342 330 369 259 424 208 c
479 157 555 131 651 131 c
747 131 823 157 878 208 c
933 260 961 331 961 420 c
961 510 933 581 878 632 c
823 683 748 709 651 709 c

449 795 m
362 816 295 857 246 916 c
198 975 174 1048 174 1133 c
174 1252 216 1347 301 1416 c
386 1485 503 1520 651 1520 c
800 1520 916 1485 1001 1416 c
1086 1347 1128 1252 1128 1133 c
1128 1048 1104 975 1055 916 c
1007 857 940 816 854 795 c
951 772 1027 728 1081 662 c
1136 596 1163 515 1163 420 c
1163 275 1119 164 1030 87 c
942 10 816 -29 651 -29 c
486 -29 360 10 271 87 c
183 164 139 275 139 420 c
139 515 166 596 221 662 c
276 728 352 772 449 795 c

375 1114 m
375 1037 399 976 447 933 c
496 890 564 868 651 868 c
738 868 805 890 854 933 c
903 976 928 1037 928 1114 c
928 1191 903 1252 854 1295 c
805 1338 738 1360 651 1360 c
564 1360 496 1338 447 1295 c
399 1252 375 1191 375 1114 c

ce} _d
/p{1300 0 186 -426 1188 1147 sc
371 168 m
371 -426 l
186 -426 l
186 1120 l
371 1120 l
371 950 l
410 1017 458 1066 517 1098 c
576 1131 647 1147 729 1147 c
865 1147 975 1093 1060 985 c
1145 877 1188 735 1188 559 c
1188 383 1145 241 1060 133 c
975 25 865 -29 729 -29 c
647 -29 576 -13 517 19 c
458 52 410 101 371 168 c

997 559 m
997 694 969 800 913 877 c
858 954 781 993 684 993 c
587 993 510 954 454 877 c
399 800 371 694 371 559 c
371 424 399 317 454 240 c
510 163 587 125 684 125 c
781 125 858 163 913 240 c
969 317 997 424 997 559 c

ce} _d
/equal{1716 0 217 352 1499 930 sc
217 930 m
1499 930 l
1499 762 l
217 762 l
217 930 l

217 522 m
1499 522 l
1499 352 l
217 352 l
217 522 l

ce} _d
end readonly def

/BuildGlyph {
 exch begin
 CharStrings exch
 2 copy known not {pop /.notdef} if
 true 3 1 roll get exec
 end
} _d

/BuildChar {
 1 index /Encoding get exch get
 1 index /BuildGlyph get exec
} _d

FontName currentdict end definefont pop
%!PS-Adobe-3.0 Resource-Font
%%Creator: Converted from TrueType to Type 3 by Matplotlib.
10 dict begin
/FontName /DejaVuSans-Oblique def
/PaintType 0 def
/FontMatrix [0.00048828125 0 0 0.00048828125 0 0] def
/FontBBox [-2080 -717 3398 2187] def
/FontType 3 def
/Encoding [/a /B /H /J /k /m /T /x] def
/CharStrings 9 dict dup begin
/.notdef 0 def
/a{1255 0 84 -29 1120 1147 sc
1100 639 m
975 0 l
791 0 l
825 170 l
771 103 709 53 640 20 c
571 -13 495 -29 410 -29 c
315 -29 236 0 175 58 c
114 117 84 192 84 283 c
84 414 136 517 240 593 c
345 669 489 707 672 707 c
928 707 l
938 756 l
939 761 940 767 941 773 c
942 780 942 790 942 803 c
942 862 918 908 869 941 c
821 974 753 991 666 991 c
606 991 544 983 481 968 c
418 953 354 930 287 899 c
319 1069 l
388 1095 456 1114 522 1127 c
589 1140 653 1147 715 1147 c
847 1147 947 1118 1016 1061 c
1085 1004 1120 920 1120 811 c
1120 789 1118 763 1115 733 c
1112 704 1107 672 1100 639 c

901 563 m
717 563 l
566 563 455 543 382 502 c
310 462 274 400 274 315 c
274 256 292 210 329 177 c
366 144 418 127 483 127 c
583 127 670 163 745 234 c
820 306 869 402 893 522 c
901 563 l

ce} _d
/B{1405 0 55 0 1280 1493 sc
346 1493 m
862 1493 l
1002 1493 1107 1467 1176 1415 c
1245 1363 1280 1285 1280 1180 c
1280 1084 1250 1001 1190 931 c
1131 862 1053 820 956 805 c
1039 786 1101 751 1142 698 c
1183 645 1204 575 1204 487 c
1204 337 1148 218 1037 131 c
926 44 775 0 582 0 c
55 0 l
346 1493 l

395 713 m
289 166 l
614 166 l
736 166 830 194 896 250 c
962 306 995 385 995 487 c
995 566 973 623 929 659 c
886 695 816 713 719 713 c
395 713 l

514 1327 m
426 877 l
727 877 l
834 877 918 900 978 947 c
1039 994 1069 1058 1069 1141 c
1069 1206 1049 1253 1008 1282 c
967 1312 902 1327 813 1327 c
514 1327 l

ce} _d
/H{1540 0 55 0 1485 1493 sc
346 1493 m
549 1493 l
430 881 l
1163 881 l
1282 1493 l
1485 1493 l
1194 0 l
991 0 l
1130 711 l
397 711 l
258 0 l
55 0 l
346 1493 l

ce} _d
/J{604 0 -336 -410 545 1493 sc
342 1493 m
545 1493 l
274 104 l
239 -77 179 -207 95 -288 c
12 -369 -105 -410 -256 -410 c
-336 -410 l
-303 -240 l
-240 -240 l
-150 -240 -82 -214 -35 -163 c
12 -112 47 -23 72 104 c
342 1493 l

ce} _d
/k{1186 0 72 0 1253 1556 sc
375 1556 m
559 1556 l
383 649 l
1014 1120 l
1253 1120 l
549 584 l
1063 0 l
840 0 l
362 547 l
256 0 l
72 0 l
375 1556 l

ce} _d
/m{1995 0 72 0 1855 1147 sc
1839 676 m
1708 0 l
1524 0 l
1653 670 l
1658 699 1662 723 1665 744 c
1668 765 1669 782 1669 797 c
1669 857 1652 904 1619 937 c
1586 970 1539 987 1479 987 c
1390 987 1310 953 1240 886 c
1170 819 1125 732 1104 625 c
981 0 l
797 0 l
928 670 l
933 695 937 717 940 738 c
943 759 944 778 944 795 c
944 856 927 903 894 936 c
861 970 815 987 756 987 c
665 987 585 953 515 886 c
445 819 400 732 379 625 c
256 0 l
72 0 l
291 1120 l
475 1120 l
440 946 l
490 1011 548 1061 615 1095 c
682 1130 754 1147 831 1147 c
912 1147 979 1126 1031 1083 c
1084 1040 1115 981 1126 905 c
1182 984 1247 1044 1320 1085 c
1394 1126 1472 1147 1554 1147 c
1650 1147 1724 1119 1776 1064 c
1829 1009 1855 930 1855 829 c
1855 807 1854 783 1851 756 c
1848 730 1844 703 1839 676 c

ce} _d
/T{1251 0 88 0 1384 1493 sc
121 1493 m
1384 1493 l
1352 1323 l
819 1323 l
563 0 l
360 0 l
616 1323 l
88 1323 l
121 1493 l

ce} _d
/x{1212 0 -53 0 1229 1120 sc
1229 1120 m
715 571 l
1030 0 l
819 0 l
582 444 l
170 0 l
-53 0 l
498 590 l
205 1120 l
416 1120 l
631 715 l
1006 1120 l
1229 1120 l

ce} _d
end readonly def

/BuildGlyph {
 exch begin
 CharStrings exch
 2 copy known not {pop /.notdef} if
 true 3 1 roll get exec
 end
} _d

/BuildChar {
 1 index /Encoding get exch get
 1 index /BuildGlyph get exec
} _d

FontName currentdict end definefont pop
end
%%EndProlog
mpldict begin
95.787 234.408 translate
420.426 323.184 0 0 clipbox
gsave
0 0 m
420.42625 0 l
420.42625 323.183875 l
0 323.183875 l
cl
1.000 setgray
fill
grestore
gsave
56.10625 49.871875 m
413.22625 49.871875 l
413.22625 315.983875 l
56.10625 315.983875 l
cl
1.000 setgray
fill
grestore
1.000 setlinewidth
1 setlinejoin
0 setlinecap
[] 0 setdash
0.000 setgray
gsave
357.12 266.112 56.106 49.872 clipbox
/o {
gsave
newpath
translate
1.0 setlinewidth
1 setlinejoin

0 setlinecap

-0.605076 1.460782 m
-1.460782 0.605076 l
-1.460782 -0.605076 l
-0.605076 -1.460782 l
0.605076 -1.460782 l
1.460782 -0.605076 l
1.460782 0.605076 l
0.605076 1.460782 l
cl

gsave
0.000 setgray
fill
grestore
stroke
grestore
} bind def
56.1063 160.89 o
grestore
gsave
357.12 266.112 56.106 49.872 clipbox
/o {
gsave
newpath
translate
1.0 setlinewidth
1 setlinejoin

0 setlinecap

-0.605076 1.460782 m
-1.460782 0.605076 l
-1.460782 -0.605076 l
-0.605076 -1.460782 l
0.605076 -1.460782 l
1.460782 -0.605076 l
1.460782 0.605076 l
0.605076 1.460782 l
cl

gsave
0.000 setgray
fill
grestore
stroke
grestore
} bind def
64.8271 160.89 o
grestore
gsave
357.12 266.112 56.106 49.872 clipbox
/o {
gsave
newpath
translate
1.0 setlinewidth
1 setlinejoin

0 setlinecap

-0.605076 1.460782 m
-1.460782 0.605076 l
-1.460782 -0.605076 l
-0.605076 -1.460782 l
0.605076 -1.460782 l
1.460782 -0.605076 l
1.460782 0.605076 l
0.605076 1.460782 l
cl

gsave
0.000 setgray
fill
grestore
stroke
grestore
} bind def
73.548 160.89 o
grestore
gsave
357.12 266.112 56.106 49.872 clipbox
/o {
gsave
newpath
translate
1.0 setlinewidth
1 setlinejoin

0 setlinecap

-0.605076 1.460782 m
-1.460782 0.605076 l
-1.460782 -0.605076 l
-0.605076 -1.460782 l
0.605076 -1.460782 l
1.460782 -0.605076 l
1.460782 0.605076 l
0.605076 1.460782 l
cl

gsave
0.000 setgray
fill
grestore
stroke
grestore
} bind def
82.2689 160.89 o
grestore
gsave
357.12 266.112 56.106 49.872 clipbox
/o {
gsave
newpath
translate
1.0 setlinewidth
1 setlinejoin

0 setlinecap

-0.605076 1.460782 m
-1.460782 0.605076 l
-1.460782 -0.605076 l
-0.605076 -1.460782 l
0.605076 -1.460782 l
1.460782 -0.605076 l
1.460782 0.605076 l
0.605076 1.460782 l
cl

gsave
0.000 setgray
fill
grestore
stroke
grestore
} bind def
90.9898 160.89 o
grestore
gsave
357.12 266.112 56.106 49.872 clipbox
/o {
gsave
newpath
translate
1.0 setlinewidth
1 setlinejoin

0 setlinecap

-0.605076 1.460782 m
-1.460782 0.605076 l
-1.460782 -0.605076 l
-0.605076 -1.460782 l
0.605076 -1.460782 l
1.460782 -0.605076 l
1.460782 0.605076 l
0.605076 1.460782 l
cl

gsave
0.000 setgray
fill
grestore
stroke
grestore
} bind def
99.7106 160.89 o
grestore
gsave
357.12 266.112 56.106 49.872 clipbox
/o {
gsave
newpath
translate
1.0 setlinewidth
1 setlinejoin

0 setlinecap

-0.605076 1.460782 m
-1.460782 0.605076 l
-1.460782 -0.605076 l
-0.605076 -1.460782 l
0.605076 -1.460782 l
1.460782 -0.605076 l
1.460782 0.605076 l
0.605076 1.460782 l
cl

gsave
0.000 setgray
fill
grestore
stroke
grestore
} bind def
108.432 160.89 o
grestore
gsave
357.12 266.112 56.106 49.872 clipbox
/o {
gsave
newpath
translate
1.0 setlinewidth
1 setlinejoin

0 setlinecap

-0.605076 1.460782 m
-1.460782 0.605076 l
-1.460782 -0.605076 l
-0.605076 -1.460782 l
0.605076 -1.460782 l
1.460782 -0.605076 l
1.460782 0.605076 l
0.605076 1.460782 l
cl

gsave
0.000 setgray
fill
grestore
stroke
grestore
} bind def
117.152 151.027 o
grestore
gsave
357.12 266.112 56.106 49.872 clipbox
/o {
gsave
newpath
translate
1.0 setlinewidth
1 setlinejoin

0 setlinecap

-0.605076 1.460782 m
-1.460782 0.605076 l
-1.460782 -0.605076 l
-0.605076 -1.460782 l
0.605076 -1.460782 l
1.460782 -0.605076 l
1.460782 0.605076 l
0.605076 1.460782 l
cl

gsave
0.000 setgray
fill
grestore
stroke
grestore
} bind def
125.873 151.027 o
grestore
gsave
357.12 266.112 56.106 49.872 clipbox
/o {
gsave
newpath
translate
1.0 setlinewidth
1 setlinejoin

0 setlinecap

-0.605076 1.460782 m
-1.460782 0.605076 l
-1.460782 -0.605076 l
-0.605076 -1.460782 l
0.605076 -1.460782 l
1.460782 -0.605076 l
1.460782 0.605076 l
0.605076 1.460782 l
cl

gsave
0.000 setgray
fill
grestore
stroke
grestore
} bind def
134.594 151.027 o
grestore
gsave
357.12 266.112 56.106 49.872 clipbox
/o {
gsave
newpath
translate
1.0 setlinewidth
1 setlinejoin

0 setlinecap

-0.605076 1.460782 m
-1.460782 0.605076 l
-1.460782 -0.605076 l
-0.605076 -1.460782 l
0.605076 -1.460782 l
1.460782 -0.605076 l
1.460782 0.605076 l
0.605076 1.460782 l
cl

gsave
0.000 setgray
fill
grestore
stroke
grestore
} bind def
143.315 142.041 o
grestore
gsave
357.12 266.112 56.106 49.872 clipbox
/o {
gsave
newpath
translate
1.0 setlinewidth
1 setlinejoin

0 setlinecap

-0.605076 1.460782 m
-1.460782 0.605076 l
-1.460782 -0.605076 l
-0.605076 -1.460782 l
0.605076 -1.460782 l
1.460782 -0.605076 l
1.460782 0.605076 l
0.605076 1.460782 l
cl

gsave
0.000 setgray
fill
grestore
stroke
grestore
} bind def
152.036 119.594 o
grestore
gsave
357.12 266.112 56.106 49.872 clipbox
/o {
gsave
newpath
translate
1.0 setlinewidth
1 setlinejoin

0 setlinecap

-0.605076 1.460782 m
-1.460782 0.605076 l
-1.460782 -0.605076 l
-0.605076 -1.460782 l
0.605076 -1.460782 l
1.460782 -0.605076 l
1.460782 0.605076 l
0.605076 1.460782 l
cl

gsave
0.000 setgray
fill
grestore
stroke
grestore
} bind def
160.757 119.594 o
grestore
gsave
357.12 266.112 56.106 49.872 clipbox
/o {
gsave
newpath
translate
1.0 setlinewidth
1 setlinejoin

0 setlinecap

-0.605076 1.460782 m
-1.460782 0.605076 l
-1.460782 -0.605076 l
-0.605076 -1.460782 l
0.605076 -1.460782 l
1.460782 -0.605076 l
1.460782 0.605076 l
0.605076 1.460782 l
cl

gsave
0.000 setgray
fill
grestore
stroke
grestore
} bind def
169.478 113.4 o
grestore
gsave
357.12 266.112 56.106 49.872 clipbox
/o {
gsave
newpath
translate
1.0 setlinewidth
1 setlinejoin

0 setlinecap

-0.605076 1.460782 m
-1.460782 0.605076 l
-1.460782 -0.605076 l
-0.605076 -1.460782 l
0.605076 -1.460782 l
1.460782 -0.605076 l
1.460782 0.605076 l
0.605076 1.460782 l
cl

gsave
0.000 setgray
fill
grestore
stroke
grestore
} bind def
178.199 113.4 o
grestore
gsave
357.12 266.112 56.106 49.872 clipbox
/o {
gsave
newpath
translate
1.0 setlinewidth
1 setlinejoin

0 setlinecap

-0.605076 1.460782 m
-1.460782 0.605076 l
-1.460782 -0.605076 l
-0.605076 -1.460782 l
0.605076 -1.460782 l
1.460782 -0.605076 l
1.460782 0.605076 l
0.605076 1.460782 l
cl

gsave
0.000 setgray
fill
grestore
stroke
grestore
} bind def
186.919 142.041 o
grestore
gsave
357.12 266.112 56.106 49.872 clipbox
/o {
gsave
newpath
translate
1.0 setlinewidth
1 setlinejoin

0 setlinecap

-0.605076 1.460782 m
-1.460782 0.605076 l
-1.460782 -0.605076 l
-0.605076 -1.460782 l
0.605076 -1.460782 l
1.460782 -0.605076 l
1.460782 0.605076 l
0.605076 1.460782 l
cl

gsave
0.000 setgray
fill
grestore
stroke
grestore
} bind def
195.64 142.041 o
grestore
gsave
357.12 266.112 56.106 49.872 clipbox
/o {
gsave
newpath
translate
1.0 setlinewidth
1 setlinejoin

0 setlinecap

-0.605076 1.460782 m
-1.460782 0.605076 l
-1.460782 -0.605076 l
-0.605076 -1.460782 l
0.605076 -1.460782 l
1.460782 -0.605076 l
1.460782 0.605076 l
0.605076 1.460782 l
cl

gsave
0.000 setgray
fill
grestore
stroke
grestore
} bind def
204.361 142.041 o
grestore
gsave
357.12 266.112 56.106 49.872 clipbox
/o {
gsave
newpath
translate
1.0 setlinewidth
1 setlinejoin

0 setlinecap

-0.605076 1.460782 m
-1.460782 0.605076 l
-1.460782 -0.605076 l
-0.605076 -1.460782 l
0.605076 -1.460782 l
1.460782 -0.605076 l
1.460782 0.605076 l
0.605076 1.460782 l
cl

gsave
0.000 setgray
fill
grestore
stroke
grestore
} bind def
213.082 126.392 o
grestore
gsave
357.12 266.112 56.106 49.872 clipbox
/o {
gsave
newpath
translate
1.0 setlinewidth
1 setlinejoin

0 setlinecap

-0.605076 1.460782 m
-1.460782 0.605076 l
-1.460782 -0.605076 l
-0.605076 -1.460782 l
0.605076 -1.460782 l
1.460782 -0.605076 l
1.460782 0.605076 l
0.605076 1.460782 l
cl

gsave
0.000 setgray
fill
grestore
stroke
grestore
} bind def
221.803 119.594 o
grestore
gsave
357.12 266.112 56.106 49.872 clipbox
/o {
gsave
newpath
translate
1.0 setlinewidth
1 setlinejoin

0 setlinecap

-0.605076 1.460782 m
-1.460782 0.605076 l
-1.460782 -0.605076 l
-0.605076 -1.460782 l
0.605076 -1.460782 l
1.460782 -0.605076 l
1.460782 0.605076 l
0.605076 1.460782 l
cl

gsave
0.000 setgray
fill
grestore
stroke
grestore
} bind def
230.524 126.392 o
grestore
gsave
357.12 266.112 56.106 49.872 clipbox
/o {
gsave
newpath
translate
1.0 setlinewidth
1 setlinejoin

0 setlinecap

-0.605076 1.460782 m
-1.460782 0.605076 l
-1.460782 -0.605076 l
-0.605076 -1.460782 l
0.605076 -1.460782 l
1.460782 -0.605076 l
1.460782 0.605076 l
0.605076 1.460782 l
cl

gsave
0.000 setgray
fill
grestore
stroke
grestore
} bind def
239.245 171.714 o
grestore
gsave
357.12 266.112 56.106 49.872 clipbox
/o {
gsave
newpath
translate
1.0 setlinewidth
1 setlinejoin

0 setlinecap

-0.605076 1.460782 m
-1.460782 0.605076 l
-1.460782 -0.605076 l
-0.605076 -1.460782 l
0.605076 -1.460782 l
1.460782 -0.605076 l
1.460782 0.605076 l
0.605076 1.460782 l
cl

gsave
0.000 setgray
fill
grestore
stroke
grestore
} bind def
247.966 196.631 o
grestore
gsave
357.12 266.112 56.106 49.872 clipbox
/o {
gsave
newpath
translate
1.0 setlinewidth
1 setlinejoin

0 setlinecap

-0.605076 1.460782 m
-1.460782 0.605076 l
-1.460782 -0.605076 l
-0.605076 -1.460782 l
0.605076 -1.460782 l
1.460782 -0.605076 l
1.460782 0.605076 l
0.605076 1.460782 l
cl

gsave
0.000 setgray
fill
grestore
stroke
grestore
} bind def
256.686 210.939 o
grestore
gsave
357.12 266.112 56.106 49.872 clipbox
/o {
gsave
newpath
translate
1.0 setlinewidth
1 setlinejoin

0 setlinecap

-0.605076 1.460782 m
-1.460782 0.605076 l
-1.460782 -0.605076 l
-0.605076 -1.460782 l
0.605076 -1.460782 l
1.460782 -0.605076 l
1.460782 0.605076 l
0.605076 1.460782 l
cl

gsave
0.000 setgray
fill
grestore
stroke
grestore
} bind def
265.407 210.939 o
grestore
gsave
357.12 266.112 56.106 49.872 clipbox
/o {
gsave
newpath
translate
1.0 setlinewidth
1 setlinejoin

0 setlinecap

-0.605076 1.460782 m
-1.460782 0.605076 l
-1.460782 -0.605076 l
-0.605076 -1.460782 l
0.605076 -1.460782 l
1.460782 -0.605076 l
1.460782 0.605076 l
0.605076 1.460782 l
cl

gsave
0.000 setgray
fill
grestore
stroke
grestore
} bind def
274.128 226.643 o
grestore
gsave
357.12 266.112 56.106 49.872 clipbox
/o {
gsave
newpath
translate
1.0 setlinewidth
1 setlinejoin

0 setlinecap

-0.605076 1.460782 m
-1.460782 0.605076 l
-1.460782 -0.605076 l
-0.605076 -1.460782 l
0.605076 -1.460782 l
1.460782 -0.605076 l
1.460782 0.605076 l
0.605076 1.460782 l
cl

gsave
0.000 setgray
fill
grestore
stroke
grestore
} bind def
282.849 226.643 o
grestore
gsave
357.12 266.112 56.106 49.872 clipbox
/o {
gsave
newpath
translate
1.0 setlinewidth
1 setlinejoin

0 setlinecap

-0.605076 1.460782 m
-1.460782 0.605076 l
-1.460782 -0.605076 l
-0.605076 -1.460782 l
0.605076 -1.460782 l
1.460782 -0.605076 l
1.460782 0.605076 l
0.605076 1.460782 l
cl

gsave
0.000 setgray
fill
grestore
stroke
grestore
} bind def
291.57 243.878 o
grestore
gsave
357.12 266.112 56.106 49.872 clipbox
/o {
gsave
newpath
translate
1.0 setlinewidth
1 setlinejoin

0 setlinecap

-0.605076 1.460782 m
-1.460782 0.605076 l
-1.460782 -0.605076 l
-0.605076 -1.460782 l
0.605076 -1.460782 l
1.460782 -0.605076 l
1.460782 0.605076 l
0.605076 1.460782 l
cl

gsave
0.000 setgray
fill
grestore
stroke
grestore
} bind def
300.291 243.878 o
grestore
gsave
357.12 266.112 56.106 49.872 clipbox
/o {
gsave
newpath
translate
1.0 setlinewidth
1 setlinejoin

0 setlinecap

-0.605076 1.460782 m
-1.460782 0.605076 l
-1.460782 -0.605076 l
-0.605076 -1.460782 l
0.605076 -1.460782 l
1.460782 -0.605076 l
1.460782 0.605076 l
0.605076 1.460782 l
cl

gsave
0.000 setgray
fill
grestore
stroke
grestore
} bind def
309.012 243.878 o
grestore
gsave
357.12 266.112 56.106 49.872 clipbox
/o {
gsave
newpath
translate
1.0 setlinewidth
1 setlinejoin

0 setlinecap

-0.605076 1.460782 m
-1.460782 0.605076 l
-1.460782 -0.605076 l
-0.605076 -1.460782 l
0.605076 -1.460782 l
1.460782 -0.605076 l
1.460782 0.605076 l
0.605076 1.460782 l
cl

gsave
0.000 setgray
fill
grestore
stroke
grestore
} bind def
317.733 262.794 o
grestore
gsave
357.12 266.112 56.106 49.872 clipbox
/o {
gsave
newpath
translate
1.0 setlinewidth
1 setlinejoin

0 setlinecap

-0.605076 1.460782 m
-1.460782 0.605076 l
-1.460782 -0.605076 l
-0.605076 -1.460782 l
0.605076 -1.460782 l
1.460782 -0.605076 l
1.460782 0.605076 l
0.605076 1.460782 l
cl

gsave
0.000 setgray
fill
grestore
stroke
grestore
} bind def
326.454 262.794 o
grestore
gsave
357.12 266.112 56.106 49.872 clipbox
/o {
gsave
newpath
translate
1.0 setlinewidth
1 setlinejoin

0 setlinecap

-0.605076 1.460782 m
-1.460782 0.605076 l
-1.460782 -0.605076 l
-0.605076 -1.460782 l
0.605076 -1.460782 l
1.460782 -0.605076 l
1.460782 0.605076 l
0.605076 1.460782 l
cl

gsave
0.000 setgray
fill
grestore
stroke
grestore
} bind def
335.174 262.794 o
grestore
gsave
357.12 266.112 56.106 49.872 clipbox
/o {
gsave
newpath
translate
1.0 setlinewidth
1 setlinejoin

0 setlinecap

-0.605076 1.460782 m
-1.460782 0.605076 l
-1.460782 -0.605076 l
-0.605076 -1.460782 l
0.605076 -1.460782 l
1.460782 -0.605076 l
1.460782 0.605076 l
0.605076 1.460782 l
cl

gsave
0.000 setgray
fill
grestore
stroke
grestore
} bind def
343.895 262.794 o
grestore
gsave
357.12 266.112 56.106 49.872 clipbox
/o {
gsave
newpath
translate
1.0 setlinewidth
1 setlinejoin

0 setlinecap

-0.605076 1.460782 m
-1.460782 0.605076 l
-1.460782 -0.605076 l
-0.605076 -1.460782 l
0.605076 -1.460782 l
1.460782 -0.605076 l
1.460782 0.605076 l
0.605076 1.460782 l
cl

gsave
0.000 setgray
fill
grestore
stroke
grestore
} bind def
352.616 262.794 o
grestore
gsave
357.12 266.112 56.106 49.872 clipbox
/o {
gsave
newpath
translate
1.0 setlinewidth
1 setlinejoin

0 setlinecap

-0.605076 1.460782 m
-1.460782 0.605076 l
-1.460782 -0.605076 l
-0.605076 -1.460782 l
0.605076 -1.460782 l
1.460782 -0.605076 l
1.460782 0.605076 l
0.605076 1.460782 l
cl

gsave
0.000 setgray
fill
grestore
stroke
grestore
} bind def
361.337 283.553 o
grestore
gsave
357.12 266.112 56.106 49.872 clipbox
/o {
gsave
newpath
translate
1.0 setlinewidth
1 setlinejoin

0 setlinecap

-0.605076 1.460782 m
-1.460782 0.605076 l
-1.460782 -0.605076 l
-0.605076 -1.460782 l
0.605076 -1.460782 l
1.460782 -0.605076 l
1.460782 0.605076 l
0.605076 1.460782 l
cl

gsave
0.000 setgray
fill
grestore
stroke
grestore
} bind def
370.058 283.553 o
grestore
gsave
357.12 266.112 56.106 49.872 clipbox
/o {
gsave
newpath
translate
1.0 setlinewidth
1 setlinejoin

0 setlinecap

-0.605076 1.460782 m
-1.460782 0.605076 l
-1.460782 -0.605076 l
-0.605076 -1.460782 l
0.605076 -1.460782 l
1.460782 -0.605076 l
1.460782 0.605076 l
0.605076 1.460782 l
cl

gsave
0.000 setgray
fill
grestore
stroke
grestore
} bind def
378.779 283.553 o
grestore
gsave
357.12 266.112 56.106 49.872 clipbox
/o {
gsave
newpath
translate
1.0 setlinewidth
1 setlinejoin

0 setlinecap

-0.605076 1.460782 m
-1.460782 0.605076 l
-1.460782 -0.605076 l
-0.605076 -1.460782 l
0.605076 -1.460782 l
1.460782 -0.605076 l
1.460782 0.605076 l
0.605076 1.460782 l
cl

gsave
0.000 setgray
fill
grestore
stroke
grestore
} bind def
387.5 283.553 o
grestore
gsave
357.12 266.112 56.106 49.872 clipbox
/o {
gsave
newpath
translate
1.0 setlinewidth
1 setlinejoin

0 setlinecap

-0.605076 1.460782 m
-1.460782 0.605076 l
-1.460782 -0.605076 l
-0.605076 -1.460782 l
0.605076 -1.460782 l
1.460782 -0.605076 l
1.460782 0.605076 l
0.605076 1.460782 l
cl

gsave
0.000 setgray
fill
grestore
stroke
grestore
} bind def
396.221 306.337 o
grestore
0.800 setlinewidth
gsave
/o {
gsave
newpath
translate
0.8 setlinewidth
1 setlinejoin

0 setlinecap

0 0 m
0 -3.5 l

gsave
0.000 setgray
fill
grestore
stroke
grestore
} bind def
56.1063 49.8719 o
grestore
/DejaVuSans 10.000 selectfont
gsave

52.9266 35.2781 translate
0 rotate
0 0 m /zero glyphshow
grestore
gsave
/o {
gsave
newpath
translate
0.8 setlinewidth
1 setlinejoin

0 setlinecap

0 0 m
0 -3.5 l

gsave
0.000 setgray
fill
grestore
stroke
grestore
} bind def
112.792 49.8719 o
grestore
/DejaVuSans 10.000 selectfont
gsave

109.612 35.2781 translate
0 rotate
0 0 m /one glyphshow
grestore
gsave
/o {
gsave
newpath
translate
0.8 setlinewidth
1 setlinejoin

0 setlinecap

0 0 m
0 -3.5 l

gsave
0.000 setgray
fill
grestore
stroke
grestore
} bind def
169.478 49.8719 o
grestore
/DejaVuSans 10.000 selectfont
gsave

166.298 35.2781 translate
0 rotate
0 0 m /two glyphshow
grestore
gsave
/o {
gsave
newpath
translate
0.8 setlinewidth
1 setlinejoin

0 setlinecap

0 0 m
0 -3.5 l

gsave
0.000 setgray
fill
grestore
stroke
grestore
} bind def
226.163 49.8719 o
grestore
/DejaVuSans 10.000 selectfont
gsave

222.984 35.2781 translate
0 rotate
0 0 m /three glyphshow
grestore
gsave
/o {
gsave
newpath
translate
0.8 setlinewidth
1 setlinejoin

0 setlinecap

0 0 m
0 -3.5 l

gsave
0.000 setgray
fill
grestore
stroke
grestore
} bind def
282.849 49.8719 o
grestore
/DejaVuSans 10.000 selectfont
gsave

279.669 35.2781 translate
0 rotate
0 0 m /four glyphshow
grestore
gsave
/o {
gsave
newpath
translate
0.8 setlinewidth
1 setlinejoin

0 setlinecap

0 0 m
0 -3.5 l

gsave
0.000 setgray
fill
grestore
stroke
grestore
} bind def
339.535 49.8719 o
grestore
/DejaVuSans 10.000 selectfont
gsave

336.355 35.2781 translate
0 rotate
0 0 m /five glyphshow
grestore
gsave
/o {
gsave
newpath
translate
0.8 setlinewidth
1 setlinejoin

0 setlinecap

0 0 m
0 -3.5 l

gsave
0.000 setgray
fill
grestore
stroke
grestore
} bind def
396.221 49.8719 o
grestore
/DejaVuSans 10.000 selectfont
gsave

393.041 35.2781 translate
0 rotate
0 0 m /six glyphshow
grestore
gsave
215.666 12.2 translate
0 rotate
/DejaVuSans-Oblique 22.0 selectfont
0 0.96875 moveto
/H glyphshow
/DejaVuSans 22.0 selectfont
16.543 0.96875 moveto
/comma glyphshow
23.5361 0.96875 moveto
/space glyphshow
/DejaVuSans-Oblique 22.0 selectfont
30.5293 0.96875 moveto
/J glyphshow
grestore
gsave
/o {
gsave
newpath
translate
0.8 setlinewidth
1 setlinejoin

0 setlinecap

-0 0 m
-3.5 0 l

gsave
0.000 setgray
fill
grestore
stroke
grestore
} bind def
56.1063 49.8719 o
grestore
/DejaVuSans 10.000 selectfont
gsave

33.2 46.075 translate
0 rotate
0 0 m /zero glyphshow
6.3623 0 m /period glyphshow
9.54102 0 m /zero glyphshow
grestore
gsave
/o {
gsave
newpath
translate
0.8 setlinewidth
1 setlinejoin

0 setlinecap

-0 0 m
-3.5 0 l

gsave
0.000 setgray
fill
grestore
stroke
grestore
} bind def
56.1063 86.393 o
grestore
/DejaVuSans 10.000 selectfont
gsave

33.2 82.5961 translate
0 rotate
0 0 m /zero glyphshow
6.3623 0 m /period glyphshow
9.54102 0 m /five glyphshow
grestore
gsave
/o {
gsave
newpath
translate
0.8 setlinewidth
1 setlinejoin

0 setlinecap

-0 0 m
-3.5 0 l

gsave
0.000 setgray
fill
grestore
stroke
grestore
} bind def
56.1063 122.914 o
grestore
/DejaVuSans 10.000 selectfont
gsave

33.2 119.117 translate
0 rotate
0 0 m /one glyphshow
6.3623 0 m /period glyphshow
9.54102 0 m /zero glyphshow
grestore
gsave
/o {
gsave
newpath
translate
0.8 setlinewidth
1 setlinejoin

0 setlinecap

-0 0 m
-3.5 0 l

gsave
0.000 setgray
fill
grestore
stroke
grestore
} bind def
56.1063 159.435 o
grestore
/DejaVuSans 10.000 selectfont
gsave

33.2 155.638 translate
0 rotate
0 0 m /one glyphshow
6.3623 0 m /period glyphshow
9.54102 0 m /five glyphshow
grestore
gsave
/o {
gsave
newpath
translate
0.8 setlinewidth
1 setlinejoin

0 setlinecap

-0 0 m
-3.5 0 l

gsave
0.000 setgray
fill
grestore
stroke
grestore
} bind def
56.1063 195.956 o
grestore
/DejaVuSans 10.000 selectfont
gsave

33.2 192.159 translate
0 rotate
0 0 m /two glyphshow
6.3623 0 m /period glyphshow
9.54102 0 m /zero glyphshow
grestore
gsave
/o {
gsave
newpath
translate
0.8 setlinewidth
1 setlinejoin

0 setlinecap

-0 0 m
-3.5 0 l

gsave
0.000 setgray
fill
grestore
stroke
grestore
} bind def
56.1063 232.477 o
grestore
/DejaVuSans 10.000 selectfont
gsave

33.2 228.68 translate
0 rotate
0 0 m /two glyphshow
6.3623 0 m /period glyphshow
9.54102 0 m /five glyphshow
grestore
gsave
/o {
gsave
newpath
translate
0.8 setlinewidth
1 setlinejoin

0 setlinecap

-0 0 m
-3.5 0 l

gsave
0.000 setgray
fill
grestore
stroke
grestore
} bind def
56.1063 268.998 o
grestore
/DejaVuSans 10.000 selectfont
gsave

33.2 265.202 translate
0 rotate
0 0 m /three glyphshow
6.3623 0 m /period glyphshow
9.54102 0 m /zero glyphshow
grestore
gsave
/o {
gsave
newpath
translate
0.8 setlinewidth
1 setlinejoin

0 setlinecap

-0 0 m
-3.5 0 l

gsave
0.000 setgray
fill
grestore
stroke
grestore
} bind def
56.1063 305.52 o
grestore
/DejaVuSans 10.000 selectfont
gsave

33.2 301.723 translate
0 rotate
0 0 m /three glyphshow
6.3623 0 m /period glyphshow
9.54102 0 m /five glyphshow
grestore
gsave
24.2 125.428 translate
90 rotate
/DejaVuSans-Oblique 22.0 selectfont
0 0.28125 moveto
/T glyphshow
/DejaVuSans-Oblique 15.399999999999999 selectfont
13.4385 -3.32812 moveto
/m glyphshow
28.4399 -3.32812 moveto
/a glyphshow
37.877 -3.32812 moveto
/x glyphshow
/DejaVuSans 22.0 selectfont
51.8783 0.28125 moveto
/dotmath glyphshow
/DejaVuSans-Oblique 22.0 selectfont
63.1576 0.28125 moveto
/k glyphshow
/DejaVuSans-Oblique 15.399999999999999 selectfont
75.8979 -3.32812 moveto
/B glyphshow
/DejaVuSans 22.0 selectfont
87.0644 0.28125 moveto
/space glyphshow
94.0575 0.28125 moveto
/slash glyphshow
101.47 0.28125 moveto
/space glyphshow
/DejaVuSans-Oblique 22.0 selectfont
108.463 0.28125 moveto
/J glyphshow
grestore
0 setlinejoin
2 setlinecap
gsave
56.10625 49.871875 m
56.10625 315.983875 l
stroke
grestore
gsave
413.22625 49.871875 m
413.22625 315.983875 l
stroke
grestore
gsave
56.10625 49.871875 m
413.22625 49.871875 l
stroke
grestore
gsave
56.10625 315.983875 m
413.22625 315.983875 l
stroke
grestore
1.000 setlinewidth
0 setlinecap
0.800 setgray
gsave
67.30625 279.6995 m
254.0375 279.6995 l
256.170833 279.6995 257.2375 280.766167 257.2375 282.8995 c
257.2375 304.783875 l
257.2375 306.917208 256.170833 307.983875 254.0375 307.983875 c
67.30625 307.983875 l
65.172917 307.983875 64.10625 306.917208 64.10625 304.783875 c
64.10625 282.8995 l
64.10625 280.766167 65.172917 279.6995 67.30625 279.6995 c
cl
gsave
1.000 setgray
fill
grestore
stroke
grestore
1 setlinejoin
0.000 setgray
gsave
/o {
gsave
newpath
translate
1.0 setlinewidth
1 setlinejoin

0 setlinecap

-0.605076 1.460782 m
-1.460782 0.605076 l
-1.460782 -0.605076 l
-0.605076 -1.460782 l
0.605076 -1.460782 l
1.460782 -0.605076 l
1.460782 0.605076 l
0.605076 1.460782 l
cl

gsave
0.000 setgray
fill
grestore
stroke
grestore
} bind def
86.5063 293.628 o
grestore
/DejaVuSans 16.000 selectfont
gsave

115.306 289.428 translate
0 rotate
0 0 m /N glyphshow
11.9688 0 m /equal glyphshow
25.375 0 m /eight glyphshow
35.5547 0 m /one glyphshow
45.7344 0 m /comma glyphshow
50.8203 0 m /space glyphshow
55.9062 0 m /p glyphshow
66.0625 0 m /equal glyphshow
79.4688 0 m /zero glyphshow
89.6484 0 m /period glyphshow
94.7344 0 m /one glyphshow
104.914 0 m /five glyphshow
115.094 0 m /two glyphshow
125.273 0 m /eight glyphshow
grestore

end
showpage
